
2012-05-12 22:57:24: Delete_records from table:block_instance

2012-05-12 22:57:24: Delete_records from table:course_allowed_modules

2012-05-12 22:57:24: Delete_records from table:role_names

2012-05-12 22:57:24: Delete_records from table:role_names

2012-05-12 22:57:24: Delete_records from table:role_names

2012-05-12 22:57:24: Delete_records from table:role_names

2012-05-12 22:57:24: Delete_records from table:role_names

2012-05-12 22:57:24: Delete_records from table:role_names

2012-05-12 22:57:24: Delete_records from table:role_names
