
2012-05-12 22:57:13: actioninsert_table_to_rdf 2:context

2012-05-12 22:57:13: actioninsert_table_to_rdf 2:context

2012-05-12 22:57:13: actioninsert_table_to_rdf 2:context

2012-05-12 22:57:13: actioninsert_table_to_rdf 2:context
