
2012-05-12 22:57:13: --------------context

2012-05-12 22:57:13: k: contextlevel v: 80

2012-05-12 22:57:13: k: instanceid v: 1

2012-05-12 22:57:13: k: depth v: 3

2012-05-12 22:57:13: --------------context

2012-05-12 22:57:13: k: contextlevel v: 80

2012-05-12 22:57:13: k: instanceid v: 2

2012-05-12 22:57:13: k: depth v: 3

2012-05-12 22:57:13: --------------context

2012-05-12 22:57:13: k: contextlevel v: 80

2012-05-12 22:57:13: k: instanceid v: 3

2012-05-12 22:57:13: k: depth v: 3

2012-05-12 22:57:13: --------------context

2012-05-12 22:57:13: k: contextlevel v: 80

2012-05-12 22:57:13: k: instanceid v: 4

2012-05-12 22:57:13: k: depth v: 3
