
2012-05-12 22:57:13: insert record in table:context

2012-05-12 22:57:13: depths_insert_record new context id:4

2012-05-12 22:57:13: insert record in table:context

2012-05-12 22:57:13: depths_insert_record new context id:5

2012-05-12 22:57:13: insert record in table:context

2012-05-12 22:57:13: depths_insert_record new context id:6

2012-05-12 22:57:13: insert record in table:context

2012-05-12 22:57:13: depths_insert_record new context id:7
