
2012-05-12 22:57:54: insert record in table:modelling_tasks

2012-05-12 22:57:54: depths_insert_record new modelling_tasks id:1

2012-05-12 22:58:09: insert record in table:modelling_files

2012-05-12 22:58:09: depths_insert_record new modelling_files id:1

2012-05-12 22:58:46: insert record in table:modelling_files

2012-05-12 22:58:46: depths_insert_record new modelling_files id:2

2012-05-12 23:01:26: insert record in table:modelling_files

2012-05-12 23:01:26: depths_insert_record new modelling_files id:3

2012-05-12 23:05:08: insert record in table:modelling_files

2012-05-12 23:05:08: depths_insert_record new modelling_files id:4

2012-05-12 23:12:15: insert record in table:modelling_files

2012-05-12 23:12:15: depths_insert_record new modelling_files id:5

2012-05-12 23:19:49: insert record in table:modelling_files

2012-05-12 23:19:49: depths_insert_record new modelling_files id:6
