
2012-05-12 22:55:25: actioninsert_table_to_rdf 2:config

2012-05-12 22:55:25: actioninsert_table_to_rdf 2:role

2012-05-12 22:55:25: actioninsert_table_to_rdf 2:role_capabilities

2012-05-12 22:55:25: actioninsert_table_to_rdf 2:role

2012-05-12 22:55:25: actioninsert_table_to_rdf 2:role_capabilities

2012-05-12 22:55:25: actioninsert_table_to_rdf 2:role

2012-05-12 22:55:25: actioninsert_table_to_rdf 2:role_capabilities

2012-05-12 22:55:25: actioninsert_table_to_rdf 2:role

2012-05-12 22:55:25: actioninsert_table_to_rdf 2:role_capabilities

2012-05-12 22:55:25: actioninsert_table_to_rdf 2:role

2012-05-12 22:55:25: actioninsert_table_to_rdf 2:role_capabilities

2012-05-12 22:55:25: actioninsert_table_to_rdf 2:role

2012-05-12 22:55:25: actioninsert_table_to_rdf 2:role_capabilities

2012-05-12 22:55:25: actioninsert_table_to_rdf 2:role

2012-05-12 22:55:25: actioninsert_table_to_rdf 2:role_capabilities

2012-05-12 22:55:25: actioninsert_table_to_rdf 2:role_capabilities

2012-05-12 22:55:25: actioninsert_table_to_rdf 2:role_capabilities

2012-05-12 22:55:25: actioninsert_table_to_rdf 2:role_capabilities

2012-05-12 22:55:25: actioninsert_table_to_rdf 2:role_capabilities

2012-05-12 22:55:25: actioninsert_table_to_rdf 2:role_capabilities

2012-05-12 22:55:25: actioninsert_table_to_rdf 2:role_capabilities

2012-05-12 22:55:25: actioninsert_table_to_rdf 2:role_capabilities

2012-05-12 22:55:25: actioninsert_table_to_rdf 2:role_capabilities

2012-05-12 22:55:25: actioninsert_table_to_rdf 2:role_capabilities

2012-05-12 22:55:25: actioninsert_table_to_rdf 2:role_capabilities

2012-05-12 22:55:25: actioninsert_table_to_rdf 2:role_capabilities

2012-05-12 22:55:25: actioninsert_table_to_rdf 2:role_capabilities

2012-05-12 22:55:25: actioninsert_table_to_rdf 2:role_capabilities

2012-05-12 22:55:25: actioninsert_table_to_rdf 2:role_capabilities

2012-05-12 22:55:25: actioninsert_table_to_rdf 2:role_capabilities

2012-05-12 22:55:25: actioninsert_table_to_rdf 2:role_capabilities

2012-05-12 22:55:25: actioninsert_table_to_rdf 2:role_capabilities

2012-05-12 22:55:26: actioninsert_table_to_rdf 2:role_capabilities

2012-05-12 22:55:26: actioninsert_table_to_rdf 2:role_capabilities

2012-05-12 22:55:26: actioninsert_table_to_rdf 2:role_capabilities

2012-05-12 22:55:26: actioninsert_table_to_rdf 2:role_capabilities

2012-05-12 22:55:26: actioninsert_table_to_rdf 2:role_capabilities

2012-05-12 22:55:26: actioninsert_table_to_rdf 2:role_capabilities

2012-05-12 22:55:26: actioninsert_table_to_rdf 2:role_capabilities

2012-05-12 22:55:26: actioninsert_table_to_rdf 2:role_capabilities

2012-05-12 22:55:26: actioninsert_table_to_rdf 2:role_capabilities

2012-05-12 22:55:26: actioninsert_table_to_rdf 2:role_capabilities

2012-05-12 22:55:26: actioninsert_table_to_rdf 2:role_capabilities

2012-05-12 22:55:26: actioninsert_table_to_rdf 2:role_capabilities

2012-05-12 22:55:26: actioninsert_table_to_rdf 2:role_capabilities

2012-05-12 22:55:26: actioninsert_table_to_rdf 2:role_capabilities

2012-05-12 22:55:26: actioninsert_table_to_rdf 2:role_capabilities

2012-05-12 22:55:26: actioninsert_table_to_rdf 2:role_capabilities

2012-05-12 22:55:26: actioninsert_table_to_rdf 2:role_capabilities

2012-05-12 22:55:26: actioninsert_table_to_rdf 2:role_capabilities

2012-05-12 22:55:26: actioninsert_table_to_rdf 2:role_capabilities

2012-05-12 22:55:26: actioninsert_table_to_rdf 2:role_capabilities

2012-05-12 22:55:26: actioninsert_table_to_rdf 2:role_capabilities

2012-05-12 22:55:26: actioninsert_table_to_rdf 2:role_capabilities

2012-05-12 22:55:26: actioninsert_table_to_rdf 2:role_capabilities

2012-05-12 22:55:26: actioninsert_table_to_rdf 2:role_capabilities

2012-05-12 22:55:26: actioninsert_table_to_rdf 2:role_capabilities

2012-05-12 22:55:26: actioninsert_table_to_rdf 2:role_capabilities

2012-05-12 22:55:26: actioninsert_table_to_rdf 2:role_capabilities

2012-05-12 22:55:26: actioninsert_table_to_rdf 2:role_capabilities

2012-05-12 22:55:26: actioninsert_table_to_rdf 2:role_capabilities

2012-05-12 22:55:26: actioninsert_table_to_rdf 2:role_capabilities

2012-05-12 22:55:26: actioninsert_table_to_rdf 2:role_capabilities

2012-05-12 22:55:26: actioninsert_table_to_rdf 2:role_capabilities

2012-05-12 22:55:26: actioninsert_table_to_rdf 2:role_capabilities

2012-05-12 22:55:26: actioninsert_table_to_rdf 2:role_capabilities

2012-05-12 22:55:26: actioninsert_table_to_rdf 2:role_capabilities

2012-05-12 22:55:26: actioninsert_table_to_rdf 2:role_capabilities

2012-05-12 22:55:26: actioninsert_table_to_rdf 2:role_capabilities

2012-05-12 22:55:26: actioninsert_table_to_rdf 2:role_capabilities

2012-05-12 22:55:26: actioninsert_table_to_rdf 2:role_capabilities

2012-05-12 22:55:26: actioninsert_table_to_rdf 2:role_capabilities

2012-05-12 22:55:26: actioninsert_table_to_rdf 2:role_capabilities

2012-05-12 22:55:26: actioninsert_table_to_rdf 2:role_capabilities

2012-05-12 22:55:26: actioninsert_table_to_rdf 2:role_capabilities

2012-05-12 22:55:26: actioninsert_table_to_rdf 2:role_capabilities

2012-05-12 22:55:26: actioninsert_table_to_rdf 2:role_capabilities

2012-05-12 22:55:26: actioninsert_table_to_rdf 2:role_capabilities

2012-05-12 22:55:26: actioninsert_table_to_rdf 2:role_capabilities

2012-05-12 22:55:26: actioninsert_table_to_rdf 2:role_capabilities

2012-05-12 22:55:26: actioninsert_table_to_rdf 2:role_capabilities

2012-05-12 22:55:26: actioninsert_table_to_rdf 2:role_capabilities

2012-05-12 22:55:26: actioninsert_table_to_rdf 2:role_capabilities

2012-05-12 22:55:26: actioninsert_table_to_rdf 2:role_capabilities

2012-05-12 22:55:26: actioninsert_table_to_rdf 2:role_capabilities

2012-05-12 22:55:26: actioninsert_table_to_rdf 2:role_capabilities

2012-05-12 22:55:26: actioninsert_table_to_rdf 2:role_capabilities

2012-05-12 22:55:26: actioninsert_table_to_rdf 2:role_capabilities

2012-05-12 22:55:26: actioninsert_table_to_rdf 2:role_capabilities

2012-05-12 22:55:26: actioninsert_table_to_rdf 2:role_capabilities

2012-05-12 22:55:26: actioninsert_table_to_rdf 2:role_capabilities

2012-05-12 22:55:26: actioninsert_table_to_rdf 2:role_capabilities

2012-05-12 22:55:26: actioninsert_table_to_rdf 2:role_capabilities

2012-05-12 22:55:26: actioninsert_table_to_rdf 2:role_capabilities

2012-05-12 22:55:26: actioninsert_table_to_rdf 2:role_capabilities

2012-05-12 22:55:26: actioninsert_table_to_rdf 2:role_capabilities

2012-05-12 22:55:26: actioninsert_table_to_rdf 2:role_capabilities

2012-05-12 22:55:26: actioninsert_table_to_rdf 2:role_capabilities

2012-05-12 22:55:26: actioninsert_table_to_rdf 2:role_capabilities

2012-05-12 22:55:26: actioninsert_table_to_rdf 2:role_capabilities

2012-05-12 22:55:26: actioninsert_table_to_rdf 2:role_capabilities

2012-05-12 22:55:26: actioninsert_table_to_rdf 2:role_capabilities

2012-05-12 22:55:26: actioninsert_table_to_rdf 2:role_capabilities

2012-05-12 22:55:26: actioninsert_table_to_rdf 2:role_capabilities

2012-05-12 22:55:26: actioninsert_table_to_rdf 2:role_capabilities

2012-05-12 22:55:26: actioninsert_table_to_rdf 2:role_capabilities

2012-05-12 22:55:26: actioninsert_table_to_rdf 2:role_capabilities

2012-05-12 22:55:26: actioninsert_table_to_rdf 2:role_capabilities

2012-05-12 22:55:26: actioninsert_table_to_rdf 2:role_capabilities

2012-05-12 22:55:26: actioninsert_table_to_rdf 2:role_capabilities

2012-05-12 22:55:26: actioninsert_table_to_rdf 2:role_capabilities

2012-05-12 22:55:26: actioninsert_table_to_rdf 2:role_capabilities

2012-05-12 22:55:26: actioninsert_table_to_rdf 2:role_capabilities

2012-05-12 22:55:26: actioninsert_table_to_rdf 2:role_capabilities

2012-05-12 22:55:26: actioninsert_table_to_rdf 2:role_capabilities

2012-05-12 22:55:26: actioninsert_table_to_rdf 2:role_capabilities

2012-05-12 22:55:26: actioninsert_table_to_rdf 2:role_capabilities

2012-05-12 22:55:26: actioninsert_table_to_rdf 2:role_capabilities

2012-05-12 22:55:26: actioninsert_table_to_rdf 2:role_capabilities

2012-05-12 22:55:26: actioninsert_table_to_rdf 2:role_capabilities

2012-05-12 22:55:26: actioninsert_table_to_rdf 2:role_capabilities

2012-05-12 22:55:26: actioninsert_table_to_rdf 2:role_capabilities

2012-05-12 22:55:26: actioninsert_table_to_rdf 2:role_capabilities

2012-05-12 22:55:26: actioninsert_table_to_rdf 2:role_capabilities

2012-05-12 22:55:26: actioninsert_table_to_rdf 2:role_capabilities

2012-05-12 22:55:26: actioninsert_table_to_rdf 2:role_capabilities

2012-05-12 22:55:26: actioninsert_table_to_rdf 2:role_capabilities

2012-05-12 22:55:26: actioninsert_table_to_rdf 2:role_capabilities

2012-05-12 22:55:26: actioninsert_table_to_rdf 2:role_capabilities

2012-05-12 22:55:26: actioninsert_table_to_rdf 2:role_capabilities

2012-05-12 22:55:26: actioninsert_table_to_rdf 2:role_capabilities

2012-05-12 22:55:26: actioninsert_table_to_rdf 2:role_capabilities

2012-05-12 22:55:26: actioninsert_table_to_rdf 2:role_capabilities

2012-05-12 22:55:26: actioninsert_table_to_rdf 2:role_capabilities

2012-05-12 22:55:26: actioninsert_table_to_rdf 2:role_capabilities

2012-05-12 22:55:26: actioninsert_table_to_rdf 2:role_capabilities

2012-05-12 22:55:26: actioninsert_table_to_rdf 2:role_capabilities

2012-05-12 22:55:26: actioninsert_table_to_rdf 2:role_capabilities

2012-05-12 22:55:26: actioninsert_table_to_rdf 2:role_capabilities

2012-05-12 22:55:26: actioninsert_table_to_rdf 2:role_capabilities

2012-05-12 22:55:26: actioninsert_table_to_rdf 2:role_capabilities

2012-05-12 22:55:26: actioninsert_table_to_rdf 2:role_capabilities

2012-05-12 22:55:26: actioninsert_table_to_rdf 2:role_capabilities

2012-05-12 22:55:26: actioninsert_table_to_rdf 2:role_capabilities

2012-05-12 22:55:26: actioninsert_table_to_rdf 2:role_capabilities

2012-05-12 22:55:26: actioninsert_table_to_rdf 2:role_capabilities

2012-05-12 22:55:26: actioninsert_table_to_rdf 2:role_capabilities

2012-05-12 22:55:26: actioninsert_table_to_rdf 2:role_capabilities

2012-05-12 22:55:26: actioninsert_table_to_rdf 2:role_capabilities

2012-05-12 22:55:26: actioninsert_table_to_rdf 2:role_capabilities

2012-05-12 22:55:26: actioninsert_table_to_rdf 2:role_capabilities

2012-05-12 22:55:26: actioninsert_table_to_rdf 2:role_capabilities

2012-05-12 22:55:26: actioninsert_table_to_rdf 2:role_capabilities

2012-05-12 22:55:26: actioninsert_table_to_rdf 2:role_capabilities

2012-05-12 22:55:26: actioninsert_table_to_rdf 2:role_capabilities

2012-05-12 22:55:26: actioninsert_table_to_rdf 2:role_capabilities

2012-05-12 22:55:26: actioninsert_table_to_rdf 2:role_capabilities

2012-05-12 22:55:26: actioninsert_table_to_rdf 2:role_capabilities

2012-05-12 22:55:26: actioninsert_table_to_rdf 2:role_capabilities

2012-05-12 22:55:26: actioninsert_table_to_rdf 2:role_capabilities

2012-05-12 22:55:26: actioninsert_table_to_rdf 2:role_capabilities

2012-05-12 22:55:26: actioninsert_table_to_rdf 2:role_capabilities

2012-05-12 22:55:26: actioninsert_table_to_rdf 2:role_capabilities

2012-05-12 22:55:26: actioninsert_table_to_rdf 2:role_capabilities

2012-05-12 22:55:26: actioninsert_table_to_rdf 2:role_capabilities

2012-05-12 22:55:26: actioninsert_table_to_rdf 2:role_capabilities

2012-05-12 22:55:26: actioninsert_table_to_rdf 2:role_capabilities

2012-05-12 22:55:26: actioninsert_table_to_rdf 2:role_capabilities

2012-05-12 22:55:26: actioninsert_table_to_rdf 2:role_capabilities

2012-05-12 22:55:26: actioninsert_table_to_rdf 2:role_capabilities

2012-05-12 22:55:26: actioninsert_table_to_rdf 2:role_capabilities

2012-05-12 22:55:26: actioninsert_table_to_rdf 2:role_capabilities

2012-05-12 22:55:26: actioninsert_table_to_rdf 2:role_capabilities

2012-05-12 22:55:26: actioninsert_table_to_rdf 2:role_capabilities

2012-05-12 22:55:26: actioninsert_table_to_rdf 2:role_capabilities

2012-05-12 22:55:26: actioninsert_table_to_rdf 2:role_capabilities

2012-05-12 22:55:26: actioninsert_table_to_rdf 2:role_capabilities

2012-05-12 22:55:26: actioninsert_table_to_rdf 2:role_capabilities

2012-05-12 22:55:26: actioninsert_table_to_rdf 2:role_capabilities

2012-05-12 22:55:26: actioninsert_table_to_rdf 2:role_capabilities

2012-05-12 22:55:26: actioninsert_table_to_rdf 2:role_capabilities

2012-05-12 22:55:26: actioninsert_table_to_rdf 2:role_capabilities

2012-05-12 22:55:26: actioninsert_table_to_rdf 2:role_capabilities

2012-05-12 22:55:26: actioninsert_table_to_rdf 2:role_capabilities

2012-05-12 22:55:26: actioninsert_table_to_rdf 2:role_capabilities

2012-05-12 22:55:26: actioninsert_table_to_rdf 2:role_capabilities

2012-05-12 22:55:26: actioninsert_table_to_rdf 2:role_capabilities

2012-05-12 22:55:26: actioninsert_table_to_rdf 2:role_capabilities

2012-05-12 22:55:26: actioninsert_table_to_rdf 2:role_capabilities

2012-05-12 22:55:26: actioninsert_table_to_rdf 2:role_capabilities

2012-05-12 22:55:26: actioninsert_table_to_rdf 2:role_capabilities

2012-05-12 22:55:26: actioninsert_table_to_rdf 2:role_capabilities

2012-05-12 22:55:26: actioninsert_table_to_rdf 2:role_capabilities

2012-05-12 22:55:26: actioninsert_table_to_rdf 2:role_capabilities

2012-05-12 22:55:26: actioninsert_table_to_rdf 2:role_capabilities

2012-05-12 22:55:26: actioninsert_table_to_rdf 2:role_capabilities

2012-05-12 22:55:26: actioninsert_table_to_rdf 2:role_capabilities

2012-05-12 22:55:26: actioninsert_table_to_rdf 2:role_capabilities

2012-05-12 22:55:26: actioninsert_table_to_rdf 2:role_capabilities

2012-05-12 22:55:26: actioninsert_table_to_rdf 2:role_capabilities

2012-05-12 22:55:26: actioninsert_table_to_rdf 2:role_capabilities

2012-05-12 22:55:26: actioninsert_table_to_rdf 2:role_capabilities

2012-05-12 22:55:26: actioninsert_table_to_rdf 2:role_capabilities

2012-05-12 22:55:26: actioninsert_table_to_rdf 2:role_capabilities

2012-05-12 22:55:26: actioninsert_table_to_rdf 2:role_capabilities

2012-05-12 22:55:26: actioninsert_table_to_rdf 2:role_capabilities

2012-05-12 22:55:26: actioninsert_table_to_rdf 2:role_capabilities

2012-05-12 22:55:26: actioninsert_table_to_rdf 2:role_capabilities

2012-05-12 22:55:26: actioninsert_table_to_rdf 2:role_capabilities

2012-05-12 22:55:26: actioninsert_table_to_rdf 2:role_capabilities

2012-05-12 22:55:26: actioninsert_table_to_rdf 2:role_capabilities

2012-05-12 22:55:26: actioninsert_table_to_rdf 2:role_capabilities

2012-05-12 22:55:26: actioninsert_table_to_rdf 2:role_capabilities

2012-05-12 22:55:26: actioninsert_table_to_rdf 2:role_capabilities

2012-05-12 22:55:26: actioninsert_table_to_rdf 2:role_capabilities

2012-05-12 22:55:26: actioninsert_table_to_rdf 2:role_capabilities

2012-05-12 22:55:26: actioninsert_table_to_rdf 2:role_capabilities

2012-05-12 22:55:26: actioninsert_table_to_rdf 2:role_capabilities

2012-05-12 22:55:26: actioninsert_table_to_rdf 2:role_capabilities

2012-05-12 22:55:26: actioninsert_table_to_rdf 2:role_capabilities

2012-05-12 22:55:26: actioninsert_table_to_rdf 2:role_capabilities

2012-05-12 22:55:26: actioninsert_table_to_rdf 2:role_capabilities

2012-05-12 22:55:26: actioninsert_table_to_rdf 2:role_capabilities

2012-05-12 22:55:26: actioninsert_table_to_rdf 2:role_capabilities

2012-05-12 22:55:26: actioninsert_table_to_rdf 2:role_capabilities

2012-05-12 22:55:26: actioninsert_table_to_rdf 2:role_capabilities

2012-05-12 22:55:26: actioninsert_table_to_rdf 2:role_capabilities

2012-05-12 22:55:26: actioninsert_table_to_rdf 2:role_capabilities

2012-05-12 22:55:26: actioninsert_table_to_rdf 2:role_capabilities

2012-05-12 22:55:26: actioninsert_table_to_rdf 2:role_capabilities

2012-05-12 22:55:26: actioninsert_table_to_rdf 2:role_capabilities

2012-05-12 22:55:26: actioninsert_table_to_rdf 2:role_capabilities

2012-05-12 22:55:26: actioninsert_table_to_rdf 2:role_capabilities

2012-05-12 22:55:26: actioninsert_table_to_rdf 2:role_capabilities

2012-05-12 22:55:26: actioninsert_table_to_rdf 2:role_capabilities

2012-05-12 22:55:26: actioninsert_table_to_rdf 2:role_capabilities

2012-05-12 22:55:26: actioninsert_table_to_rdf 2:role_capabilities

2012-05-12 22:55:26: actioninsert_table_to_rdf 2:role_capabilities

2012-05-12 22:55:26: actioninsert_table_to_rdf 2:role_capabilities

2012-05-12 22:55:26: actioninsert_table_to_rdf 2:role_capabilities

2012-05-12 22:55:26: actioninsert_table_to_rdf 2:role_capabilities

2012-05-12 22:55:26: actioninsert_table_to_rdf 2:role_capabilities

2012-05-12 22:55:26: actioninsert_table_to_rdf 2:role_capabilities

2012-05-12 22:55:26: actioninsert_table_to_rdf 2:role_capabilities

2012-05-12 22:55:26: actioninsert_table_to_rdf 2:role_capabilities

2012-05-12 22:55:26: actioninsert_table_to_rdf 2:role_capabilities

2012-05-12 22:55:26: actioninsert_table_to_rdf 2:role_capabilities

2012-05-12 22:55:26: actioninsert_table_to_rdf 2:role_capabilities

2012-05-12 22:55:26: actioninsert_table_to_rdf 2:role_capabilities

2012-05-12 22:55:26: actioninsert_table_to_rdf 2:role_capabilities

2012-05-12 22:55:26: actioninsert_table_to_rdf 2:role_capabilities

2012-05-12 22:55:26: actioninsert_table_to_rdf 2:role_capabilities

2012-05-12 22:55:26: actioninsert_table_to_rdf 2:role_allow_assign

2012-05-12 22:55:26: actioninsert_table_to_rdf 2:role_allow_assign

2012-05-12 22:55:26: actioninsert_table_to_rdf 2:role_allow_assign

2012-05-12 22:55:26: actioninsert_table_to_rdf 2:role_allow_assign

2012-05-12 22:55:26: actioninsert_table_to_rdf 2:role_allow_assign

2012-05-12 22:55:26: actioninsert_table_to_rdf 2:role_allow_assign

2012-05-12 22:55:26: actioninsert_table_to_rdf 2:role_allow_assign

2012-05-12 22:55:26: actioninsert_table_to_rdf 2:role_allow_assign

2012-05-12 22:55:26: actioninsert_table_to_rdf 2:role_allow_assign

2012-05-12 22:55:26: actioninsert_table_to_rdf 2:role_allow_assign

2012-05-12 22:55:26: actioninsert_table_to_rdf 2:role_allow_assign

2012-05-12 22:55:26: actioninsert_table_to_rdf 2:role_allow_assign

2012-05-12 22:55:26: actioninsert_table_to_rdf 2:role_allow_assign

2012-05-12 22:55:26: actioninsert_table_to_rdf 2:role_allow_override

2012-05-12 22:55:26: actioninsert_table_to_rdf 2:role_allow_override

2012-05-12 22:55:26: actioninsert_table_to_rdf 2:role_allow_override

2012-05-12 22:55:26: actioninsert_table_to_rdf 2:role_allow_override

2012-05-12 22:55:26: actioninsert_table_to_rdf 2:role_allow_override

2012-05-12 22:55:26: actioninsert_table_to_rdf 2:role_allow_override

2012-05-12 22:55:26: actioninsert_table_to_rdf 2:role_allow_override

2012-05-12 22:55:26: actioninsert_table_to_rdf 2:config

2012-05-12 22:55:26: actioninsert_table_to_rdf 2:config

2012-05-12 22:55:26: actioninsert_table_to_rdf 2:config

2012-05-12 22:55:26: actioninsert_table_to_rdf 2:config

2012-05-12 22:55:26: actioninsert_table_to_rdf 2:config

2012-05-12 22:55:26: actioninsert_table_to_rdf 2:config

2012-05-12 22:55:26: actioninsert_table_to_rdf 2:config

2012-05-12 22:55:26: actioninsert_table_to_rdf 2:config

2012-05-12 22:55:26: actioninsert_table_to_rdf 2:config

2012-05-12 22:55:26: actioninsert_table_to_rdf 2:config

2012-05-12 22:55:26: actioninsert_table_to_rdf 2:config

2012-05-12 22:55:26: actioninsert_table_to_rdf 2:config

2012-05-12 22:55:26: actioninsert_table_to_rdf 2:config

2012-05-12 22:55:26: actioninsert_table_to_rdf 2:config

2012-05-12 22:55:26: actioninsert_table_to_rdf 2:config

2012-05-12 22:55:26: actioninsert_table_to_rdf 2:config

2012-05-12 22:55:26: actioninsert_table_to_rdf 2:config

2012-05-12 22:55:26: actioninsert_table_to_rdf 2:config

2012-05-12 22:55:26: actioninsert_table_to_rdf 2:config

2012-05-12 22:55:26: actioninsert_table_to_rdf 2:config

2012-05-12 22:55:26: actioninsert_table_to_rdf 2:config

2012-05-12 22:55:26: actioninsert_table_to_rdf 2:config

2012-05-12 22:55:26: actioninsert_table_to_rdf 2:config

2012-05-12 22:55:26: actioninsert_table_to_rdf 2:config_plugins

2012-05-12 22:55:26: actioninsert_table_to_rdf 2:config_plugins

2012-05-12 22:55:26: actioninsert_table_to_rdf 2:config_plugins

2012-05-12 22:55:26: actioninsert_table_to_rdf 2:config_plugins

2012-05-12 22:55:26: actioninsert_table_to_rdf 2:config_plugins

2012-05-12 22:55:26: actioninsert_table_to_rdf 2:config_plugins

2012-05-12 22:55:26: actioninsert_table_to_rdf 2:config_plugins

2012-05-12 22:55:26: actioninsert_table_to_rdf 2:config_plugins

2012-05-12 22:55:26: actioninsert_table_to_rdf 2:config

2012-05-12 22:55:26: actioninsert_table_to_rdf 2:config

2012-05-12 22:55:26: actioninsert_table_to_rdf 2:config

2012-05-12 22:55:26: actioninsert_table_to_rdf 2:config

2012-05-12 22:55:26: actioninsert_table_to_rdf 2:config

2012-05-12 22:55:26: actioninsert_table_to_rdf 2:config

2012-05-12 22:55:26: actioninsert_table_to_rdf 2:config

2012-05-12 22:55:26: actioninsert_table_to_rdf 2:config

2012-05-12 22:55:26: actioninsert_table_to_rdf 2:config

2012-05-12 22:55:26: actioninsert_table_to_rdf 2:config

2012-05-12 22:55:26: actioninsert_table_to_rdf 2:config

2012-05-12 22:55:26: actioninsert_table_to_rdf 2:config

2012-05-12 22:55:26: actioninsert_table_to_rdf 2:config

2012-05-12 22:55:26: actioninsert_table_to_rdf 2:config

2012-05-12 22:55:26: actioninsert_table_to_rdf 2:config

2012-05-12 22:55:26: actioninsert_table_to_rdf 2:config

2012-05-12 22:55:26: actioninsert_table_to_rdf 2:config

2012-05-12 22:55:26: actioninsert_table_to_rdf 2:config

2012-05-12 22:55:26: actioninsert_table_to_rdf 2:config

2012-05-12 22:55:26: actioninsert_table_to_rdf 2:config

2012-05-12 22:55:26: actioninsert_table_to_rdf 2:config

2012-05-12 22:55:26: actioninsert_table_to_rdf 2:config

2012-05-12 22:55:26: actioninsert_table_to_rdf 2:config

2012-05-12 22:55:26: actioninsert_table_to_rdf 2:config

2012-05-12 22:55:26: actioninsert_table_to_rdf 2:config

2012-05-12 22:55:26: actioninsert_table_to_rdf 2:config

2012-05-12 22:55:26: actioninsert_table_to_rdf 2:config

2012-05-12 22:55:26: actioninsert_table_to_rdf 2:config

2012-05-12 22:55:26: actioninsert_table_to_rdf 2:config

2012-05-12 22:55:26: actioninsert_table_to_rdf 2:config

2012-05-12 22:55:26: actioninsert_table_to_rdf 2:config

2012-05-12 22:55:26: actioninsert_table_to_rdf 2:config

2012-05-12 22:55:26: actioninsert_table_to_rdf 2:config

2012-05-12 22:55:26: actioninsert_table_to_rdf 2:config

2012-05-12 22:55:26: actioninsert_table_to_rdf 2:config

2012-05-12 22:55:26: actioninsert_table_to_rdf 2:config

2012-05-12 22:55:26: actioninsert_table_to_rdf 2:config

2012-05-12 22:55:26: actioninsert_table_to_rdf 2:config

2012-05-12 22:55:26: actioninsert_table_to_rdf 2:config

2012-05-12 22:55:26: actioninsert_table_to_rdf 2:config

2012-05-12 22:55:26: actioninsert_table_to_rdf 2:config

2012-05-12 22:55:26: actioninsert_table_to_rdf 2:config

2012-05-12 22:55:26: actioninsert_table_to_rdf 2:config

2012-05-12 22:55:26: actioninsert_table_to_rdf 2:config

2012-05-12 22:55:26: actioninsert_table_to_rdf 2:config

2012-05-12 22:55:26: actioninsert_table_to_rdf 2:config

2012-05-12 22:55:26: actioninsert_table_to_rdf 2:config

2012-05-12 22:55:26: actioninsert_table_to_rdf 2:config

2012-05-12 22:55:26: actioninsert_table_to_rdf 2:config

2012-05-12 22:55:26: actioninsert_table_to_rdf 2:config

2012-05-12 22:55:26: actioninsert_table_to_rdf 2:config

2012-05-12 22:55:26: actioninsert_table_to_rdf 2:config

2012-05-12 22:55:26: actioninsert_table_to_rdf 2:config

2012-05-12 22:55:26: actioninsert_table_to_rdf 2:config

2012-05-12 22:55:26: actioninsert_table_to_rdf 2:config

2012-05-12 22:55:26: actioninsert_table_to_rdf 2:config

2012-05-12 22:55:26: actioninsert_table_to_rdf 2:config

2012-05-12 22:55:26: actioninsert_table_to_rdf 2:config

2012-05-12 22:55:26: actioninsert_table_to_rdf 2:config

2012-05-12 22:55:26: actioninsert_table_to_rdf 2:config

2012-05-12 22:55:26: actioninsert_table_to_rdf 2:config

2012-05-12 22:55:26: actioninsert_table_to_rdf 2:config

2012-05-12 22:55:26: actioninsert_table_to_rdf 2:config

2012-05-12 22:55:26: actioninsert_table_to_rdf 2:config

2012-05-12 22:55:26: actioninsert_table_to_rdf 2:config

2012-05-12 22:55:26: actioninsert_table_to_rdf 2:config

2012-05-12 22:55:26: actioninsert_table_to_rdf 2:config

2012-05-12 22:55:26: actioninsert_table_to_rdf 2:config

2012-05-12 22:55:26: actioninsert_table_to_rdf 2:config

2012-05-12 22:55:26: actioninsert_table_to_rdf 2:config

2012-05-12 22:55:26: actioninsert_table_to_rdf 2:config

2012-05-12 22:55:26: actioninsert_table_to_rdf 2:config

2012-05-12 22:55:26: actioninsert_table_to_rdf 2:config

2012-05-12 22:55:26: actioninsert_table_to_rdf 2:config

2012-05-12 22:55:26: actioninsert_table_to_rdf 2:config

2012-05-12 22:55:26: actioninsert_table_to_rdf 2:config

2012-05-12 22:55:26: actioninsert_table_to_rdf 2:config

2012-05-12 22:55:26: actioninsert_table_to_rdf 2:config

2012-05-12 22:55:26: actioninsert_table_to_rdf 2:config

2012-05-12 22:55:26: actioninsert_table_to_rdf 2:config

2012-05-12 22:55:26: actioninsert_table_to_rdf 2:config

2012-05-12 22:55:26: actioninsert_table_to_rdf 2:config

2012-05-12 22:55:26: actioninsert_table_to_rdf 2:config

2012-05-12 22:55:26: actioninsert_table_to_rdf 2:config

2012-05-12 22:55:26: actioninsert_table_to_rdf 2:config

2012-05-12 22:55:26: actioninsert_table_to_rdf 2:config

2012-05-12 22:55:26: actioninsert_table_to_rdf 2:config

2012-05-12 22:55:26: actioninsert_table_to_rdf 2:config

2012-05-12 22:55:26: actioninsert_table_to_rdf 2:config

2012-05-12 22:55:26: actioninsert_table_to_rdf 2:config

2012-05-12 22:55:26: actioninsert_table_to_rdf 2:config

2012-05-12 22:55:26: actioninsert_table_to_rdf 2:config

2012-05-12 22:55:26: actioninsert_table_to_rdf 2:config

2012-05-12 22:55:26: actioninsert_table_to_rdf 2:config

2012-05-12 22:55:26: actioninsert_table_to_rdf 2:config

2012-05-12 22:55:26: actioninsert_table_to_rdf 2:config

2012-05-12 22:55:26: actioninsert_table_to_rdf 2:config

2012-05-12 22:55:26: actioninsert_table_to_rdf 2:config

2012-05-12 22:55:26: actioninsert_table_to_rdf 2:config

2012-05-12 22:55:26: actioninsert_table_to_rdf 2:config

2012-05-12 22:55:26: actioninsert_table_to_rdf 2:config

2012-05-12 22:55:26: actioninsert_table_to_rdf 2:config

2012-05-12 22:55:26: actioninsert_table_to_rdf 2:config

2012-05-12 22:55:26: actioninsert_table_to_rdf 2:config

2012-05-12 22:55:26: actioninsert_table_to_rdf 2:config

2012-05-12 22:55:26: actioninsert_table_to_rdf 2:config

2012-05-12 22:55:26: actioninsert_table_to_rdf 2:config

2012-05-12 22:55:26: actioninsert_table_to_rdf 2:config

2012-05-12 22:55:26: actioninsert_table_to_rdf 2:config

2012-05-12 22:55:26: actioninsert_table_to_rdf 2:config

2012-05-12 22:55:26: actioninsert_table_to_rdf 2:config

2012-05-12 22:55:26: actioninsert_table_to_rdf 2:config

2012-05-12 22:55:26: actioninsert_table_to_rdf 2:config

2012-05-12 22:55:26: actioninsert_table_to_rdf 2:config

2012-05-12 22:55:26: actioninsert_table_to_rdf 2:config

2012-05-12 22:55:26: actioninsert_table_to_rdf 2:config

2012-05-12 22:55:26: actioninsert_table_to_rdf 2:config

2012-05-12 22:55:26: actioninsert_table_to_rdf 2:config

2012-05-12 22:55:26: actioninsert_table_to_rdf 2:config

2012-05-12 22:55:26: actioninsert_table_to_rdf 2:config

2012-05-12 22:55:26: actioninsert_table_to_rdf 2:config

2012-05-12 22:55:26: actioninsert_table_to_rdf 2:config

2012-05-12 22:55:26: actioninsert_table_to_rdf 2:config

2012-05-12 22:55:26: actioninsert_table_to_rdf 2:config

2012-05-12 22:55:26: actioninsert_table_to_rdf 2:config

2012-05-12 22:55:26: actioninsert_table_to_rdf 2:config

2012-05-12 22:55:26: actioninsert_table_to_rdf 2:config

2012-05-12 22:55:26: actioninsert_table_to_rdf 2:config

2012-05-12 22:55:26: actioninsert_table_to_rdf 2:config

2012-05-12 22:55:26: actioninsert_table_to_rdf 2:config

2012-05-12 22:55:26: actioninsert_table_to_rdf 2:config

2012-05-12 22:55:26: actioninsert_table_to_rdf 2:config

2012-05-12 22:55:26: actioninsert_table_to_rdf 2:config

2012-05-12 22:55:26: actioninsert_table_to_rdf 2:config

2012-05-12 22:55:26: actioninsert_table_to_rdf 2:config

2012-05-12 22:55:26: actioninsert_table_to_rdf 2:config

2012-05-12 22:55:26: actioninsert_table_to_rdf 2:config

2012-05-12 22:55:26: actioninsert_table_to_rdf 2:config

2012-05-12 22:55:26: actioninsert_table_to_rdf 2:config

2012-05-12 22:55:26: actioninsert_table_to_rdf 2:config

2012-05-12 22:55:26: actioninsert_table_to_rdf 2:config

2012-05-12 22:55:26: actioninsert_table_to_rdf 2:config

2012-05-12 22:55:26: actioninsert_table_to_rdf 2:config

2012-05-12 22:55:26: actioninsert_table_to_rdf 2:config

2012-05-12 22:55:26: actioninsert_table_to_rdf 2:config

2012-05-12 22:55:26: actioninsert_table_to_rdf 2:config

2012-05-12 22:55:26: actioninsert_table_to_rdf 2:config

2012-05-12 22:55:26: actioninsert_table_to_rdf 2:config

2012-05-12 22:55:26: actioninsert_table_to_rdf 2:config

2012-05-12 22:55:26: actioninsert_table_to_rdf 2:config

2012-05-12 22:55:26: actioninsert_table_to_rdf 2:config

2012-05-12 22:55:26: actioninsert_table_to_rdf 2:config

2012-05-12 22:55:26: actioninsert_table_to_rdf 2:config

2012-05-12 22:55:26: actioninsert_table_to_rdf 2:config

2012-05-12 22:55:26: actioninsert_table_to_rdf 2:config

2012-05-12 22:55:26: actioninsert_table_to_rdf 2:config

2012-05-12 22:55:26: actioninsert_table_to_rdf 2:config

2012-05-12 22:55:26: actioninsert_table_to_rdf 2:config

2012-05-12 22:55:26: actioninsert_table_to_rdf 2:config

2012-05-12 22:55:26: actioninsert_table_to_rdf 2:config

2012-05-12 22:55:26: actioninsert_table_to_rdf 2:config

2012-05-12 22:55:26: actioninsert_table_to_rdf 2:config

2012-05-12 22:55:26: actioninsert_table_to_rdf 2:config

2012-05-12 22:55:26: actioninsert_table_to_rdf 2:config

2012-05-12 22:55:26: actioninsert_table_to_rdf 2:config

2012-05-12 22:55:26: actioninsert_table_to_rdf 2:config

2012-05-12 22:55:26: actioninsert_table_to_rdf 2:config

2012-05-12 22:55:26: actioninsert_table_to_rdf 2:config

2012-05-12 22:55:26: actioninsert_table_to_rdf 2:config

2012-05-12 22:55:26: actioninsert_table_to_rdf 2:config

2012-05-12 22:55:26: actioninsert_table_to_rdf 2:config

2012-05-12 22:55:26: actioninsert_table_to_rdf 2:config_plugins

2012-05-12 22:55:26: actioninsert_table_to_rdf 2:config

2012-05-12 22:55:26: actioninsert_table_to_rdf 2:config

2012-05-12 22:55:26: actioninsert_table_to_rdf 2:config

2012-05-12 22:55:26: actioninsert_table_to_rdf 2:config

2012-05-12 22:55:26: actioninsert_table_to_rdf 2:mnet_host

2012-05-12 22:55:26: actioninsert_table_to_rdf 2:config

2012-05-12 22:55:26: actioninsert_table_to_rdf 2:mnet_host

2012-05-12 22:55:26: actioninsert_table_to_rdf 2:config

2012-05-12 22:55:29: actioninsert_table_to_rdf 2:context

2012-05-12 22:55:29: actionupdate_table_to_rdf 2:context

2012-05-12 22:55:29: actioninsert_table_to_rdf 2:config

2012-05-12 22:55:29: actioninsert_table_to_rdf 2:config

2012-05-12 22:55:30: actioninsert_table_to_rdf 2:modules

2012-05-12 22:55:30: actioninsert_table_to_rdf 2:role_capabilities

2012-05-12 22:55:30: actioninsert_table_to_rdf 2:role_capabilities

2012-05-12 22:55:30: actioninsert_table_to_rdf 2:role_capabilities

2012-05-12 22:55:30: actioninsert_table_to_rdf 2:role_capabilities

2012-05-12 22:55:30: actioninsert_table_to_rdf 2:role_capabilities

2012-05-12 22:55:30: actioninsert_table_to_rdf 2:role_capabilities

2012-05-12 22:55:30: actioninsert_table_to_rdf 2:role_capabilities

2012-05-12 22:55:30: actioninsert_table_to_rdf 2:role_capabilities

2012-05-12 22:55:30: actioninsert_table_to_rdf 2:role_capabilities

2012-05-12 22:55:30: actioninsert_table_to_rdf 2:config

2012-05-12 22:55:31: actioninsert_table_to_rdf 2:modules

2012-05-12 22:55:31: actioninsert_table_to_rdf 2:role_capabilities

2012-05-12 22:55:31: actioninsert_table_to_rdf 2:role_capabilities

2012-05-12 22:55:31: actioninsert_table_to_rdf 2:role_capabilities

2012-05-12 22:55:31: actioninsert_table_to_rdf 2:role_capabilities

2012-05-12 22:55:31: actioninsert_table_to_rdf 2:role_capabilities

2012-05-12 22:55:31: actioninsert_table_to_rdf 2:role_capabilities

2012-05-12 22:55:31: actioninsert_table_to_rdf 2:role_capabilities

2012-05-12 22:55:31: actioninsert_table_to_rdf 2:role_capabilities

2012-05-12 22:55:31: actioninsert_table_to_rdf 2:role_capabilities

2012-05-12 22:55:31: actioninsert_table_to_rdf 2:role_capabilities

2012-05-12 22:55:31: actioninsert_table_to_rdf 2:role_capabilities

2012-05-12 22:55:31: actioninsert_table_to_rdf 2:modules

2012-05-12 22:55:31: actioninsert_table_to_rdf 2:role_capabilities

2012-05-12 22:55:31: actioninsert_table_to_rdf 2:role_capabilities

2012-05-12 22:55:31: actioninsert_table_to_rdf 2:role_capabilities

2012-05-12 22:55:31: actioninsert_table_to_rdf 2:role_capabilities

2012-05-12 22:55:31: actioninsert_table_to_rdf 2:role_capabilities

2012-05-12 22:55:31: actioninsert_table_to_rdf 2:role_capabilities

2012-05-12 22:55:31: actioninsert_table_to_rdf 2:role_capabilities

2012-05-12 22:55:31: actioninsert_table_to_rdf 2:role_capabilities

2012-05-12 22:55:31: actioninsert_table_to_rdf 2:role_capabilities

2012-05-12 22:55:31: actioninsert_table_to_rdf 2:role_capabilities

2012-05-12 22:55:31: actioninsert_table_to_rdf 2:role_capabilities

2012-05-12 22:55:31: actioninsert_table_to_rdf 2:role_capabilities

2012-05-12 22:55:31: actioninsert_table_to_rdf 2:role_capabilities

2012-05-12 22:55:33: actioninsert_table_to_rdf 2:modules

2012-05-12 22:55:33: actioninsert_table_to_rdf 2:role_capabilities

2012-05-12 22:55:33: actioninsert_table_to_rdf 2:role_capabilities

2012-05-12 22:55:33: actioninsert_table_to_rdf 2:role_capabilities

2012-05-12 22:55:33: actioninsert_table_to_rdf 2:role_capabilities

2012-05-12 22:55:33: actioninsert_table_to_rdf 2:role_capabilities

2012-05-12 22:55:33: actioninsert_table_to_rdf 2:role_capabilities

2012-05-12 22:55:33: actioninsert_table_to_rdf 2:role_capabilities

2012-05-12 22:55:33: actioninsert_table_to_rdf 2:role_capabilities

2012-05-12 22:55:33: actioninsert_table_to_rdf 2:role_capabilities

2012-05-12 22:55:33: actioninsert_table_to_rdf 2:role_capabilities

2012-05-12 22:55:33: actioninsert_table_to_rdf 2:role_capabilities

2012-05-12 22:55:33: actioninsert_table_to_rdf 2:role_capabilities

2012-05-12 22:55:33: actioninsert_table_to_rdf 2:role_capabilities

2012-05-12 22:55:33: actioninsert_table_to_rdf 2:role_capabilities

2012-05-12 22:55:33: actioninsert_table_to_rdf 2:role_capabilities

2012-05-12 22:55:33: actioninsert_table_to_rdf 2:role_capabilities

2012-05-12 22:55:33: actioninsert_table_to_rdf 2:role_capabilities

2012-05-12 22:55:33: actioninsert_table_to_rdf 2:role_capabilities

2012-05-12 22:55:33: actioninsert_table_to_rdf 2:role_capabilities

2012-05-12 22:55:33: actioninsert_table_to_rdf 2:role_capabilities

2012-05-12 22:55:33: actioninsert_table_to_rdf 2:role_capabilities

2012-05-12 22:55:33: actioninsert_table_to_rdf 2:role_capabilities

2012-05-12 22:55:33: actioninsert_table_to_rdf 2:role_capabilities

2012-05-12 22:55:33: actioninsert_table_to_rdf 2:role_capabilities

2012-05-12 22:55:33: actioninsert_table_to_rdf 2:role_capabilities

2012-05-12 22:55:33: actioninsert_table_to_rdf 2:role_capabilities

2012-05-12 22:55:33: actioninsert_table_to_rdf 2:role_capabilities

2012-05-12 22:55:33: actioninsert_table_to_rdf 2:role_capabilities

2012-05-12 22:55:33: actioninsert_table_to_rdf 2:role_capabilities

2012-05-12 22:55:33: actioninsert_table_to_rdf 2:role_capabilities

2012-05-12 22:55:33: actioninsert_table_to_rdf 2:role_capabilities

2012-05-12 22:55:33: actioninsert_table_to_rdf 2:role_capabilities

2012-05-12 22:55:33: actioninsert_table_to_rdf 2:role_capabilities

2012-05-12 22:55:33: actioninsert_table_to_rdf 2:role_capabilities

2012-05-12 22:55:34: actioninsert_table_to_rdf 2:modules

2012-05-12 22:55:34: actioninsert_table_to_rdf 2:role_capabilities

2012-05-12 22:55:35: actioninsert_table_to_rdf 2:role_capabilities

2012-05-12 22:55:35: actioninsert_table_to_rdf 2:role_capabilities

2012-05-12 22:55:35: actioninsert_table_to_rdf 2:role_capabilities

2012-05-12 22:55:35: actioninsert_table_to_rdf 2:role_capabilities

2012-05-12 22:55:35: actioninsert_table_to_rdf 2:role_capabilities

2012-05-12 22:55:35: actioninsert_table_to_rdf 2:role_capabilities

2012-05-12 22:55:35: actioninsert_table_to_rdf 2:role_capabilities

2012-05-12 22:55:35: actioninsert_table_to_rdf 2:role_capabilities

2012-05-12 22:55:35: actioninsert_table_to_rdf 2:role_capabilities

2012-05-12 22:55:35: actioninsert_table_to_rdf 2:role_capabilities

2012-05-12 22:55:35: actioninsert_table_to_rdf 2:role_capabilities

2012-05-12 22:55:35: actioninsert_table_to_rdf 2:role_capabilities

2012-05-12 22:55:35: actioninsert_table_to_rdf 2:role_capabilities

2012-05-12 22:55:35: actioninsert_table_to_rdf 2:role_capabilities

2012-05-12 22:55:35: actioninsert_table_to_rdf 2:role_capabilities

2012-05-12 22:55:35: actioninsert_table_to_rdf 2:role_capabilities

2012-05-12 22:55:35: actioninsert_table_to_rdf 2:role_capabilities

2012-05-12 22:55:35: actioninsert_table_to_rdf 2:role_capabilities

2012-05-12 22:55:35: actioninsert_table_to_rdf 2:role_capabilities

2012-05-12 22:55:35: actioninsert_table_to_rdf 2:role_capabilities

2012-05-12 22:55:35: actioninsert_table_to_rdf 2:role_capabilities

2012-05-12 22:55:35: actioninsert_table_to_rdf 2:role_capabilities

2012-05-12 22:55:35: actioninsert_table_to_rdf 2:role_capabilities

2012-05-12 22:55:35: actioninsert_table_to_rdf 2:role_capabilities

2012-05-12 22:55:35: actioninsert_table_to_rdf 2:role_capabilities

2012-05-12 22:55:35: actioninsert_table_to_rdf 2:role_capabilities

2012-05-12 22:55:35: actioninsert_table_to_rdf 2:role_capabilities

2012-05-12 22:55:35: actioninsert_table_to_rdf 2:role_capabilities

2012-05-12 22:55:35: actioninsert_table_to_rdf 2:role_capabilities

2012-05-12 22:55:35: actioninsert_table_to_rdf 2:role_capabilities

2012-05-12 22:55:35: actioninsert_table_to_rdf 2:role_capabilities

2012-05-12 22:55:35: actioninsert_table_to_rdf 2:role_capabilities

2012-05-12 22:55:35: actioninsert_table_to_rdf 2:role_capabilities

2012-05-12 22:55:35: actioninsert_table_to_rdf 2:role_capabilities

2012-05-12 22:55:35: actioninsert_table_to_rdf 2:role_capabilities

2012-05-12 22:55:35: actioninsert_table_to_rdf 2:role_capabilities

2012-05-12 22:55:35: actioninsert_table_to_rdf 2:role_capabilities

2012-05-12 22:55:35: actioninsert_table_to_rdf 2:role_capabilities

2012-05-12 22:55:35: actioninsert_table_to_rdf 2:role_capabilities

2012-05-12 22:55:35: actioninsert_table_to_rdf 2:role_capabilities

2012-05-12 22:55:35: actioninsert_table_to_rdf 2:role_capabilities

2012-05-12 22:55:35: actioninsert_table_to_rdf 2:role_capabilities

2012-05-12 22:55:35: actioninsert_table_to_rdf 2:role_capabilities

2012-05-12 22:55:35: actioninsert_table_to_rdf 2:role_capabilities

2012-05-12 22:55:35: actioninsert_table_to_rdf 2:role_capabilities

2012-05-12 22:55:35: actioninsert_table_to_rdf 2:role_capabilities

2012-05-12 22:55:35: actioninsert_table_to_rdf 2:role_capabilities

2012-05-12 22:55:35: actioninsert_table_to_rdf 2:role_capabilities

2012-05-12 22:55:35: actioninsert_table_to_rdf 2:role_capabilities

2012-05-12 22:55:35: actioninsert_table_to_rdf 2:role_capabilities

2012-05-12 22:55:35: actioninsert_table_to_rdf 2:role_capabilities

2012-05-12 22:55:35: actioninsert_table_to_rdf 2:role_capabilities

2012-05-12 22:55:35: actioninsert_table_to_rdf 2:role_capabilities

2012-05-12 22:55:35: actioninsert_table_to_rdf 2:role_capabilities

2012-05-12 22:55:35: actioninsert_table_to_rdf 2:role_capabilities

2012-05-12 22:55:35: actioninsert_table_to_rdf 2:role_capabilities

2012-05-12 22:55:35: actioninsert_table_to_rdf 2:role_capabilities

2012-05-12 22:55:35: actioninsert_table_to_rdf 2:role_capabilities

2012-05-12 22:55:35: actioninsert_table_to_rdf 2:role_capabilities

2012-05-12 22:55:35: actioninsert_table_to_rdf 2:role_capabilities

2012-05-12 22:55:35: actioninsert_table_to_rdf 2:role_capabilities

2012-05-12 22:55:35: actioninsert_table_to_rdf 2:role_capabilities

2012-05-12 22:55:35: actioninsert_table_to_rdf 2:role_capabilities

2012-05-12 22:55:36: actioninsert_table_to_rdf 2:modules

2012-05-12 22:55:36: actioninsert_table_to_rdf 2:role_capabilities

2012-05-12 22:55:36: actioninsert_table_to_rdf 2:role_capabilities

2012-05-12 22:55:36: actioninsert_table_to_rdf 2:role_capabilities

2012-05-12 22:55:36: actioninsert_table_to_rdf 2:role_capabilities

2012-05-12 22:55:36: actioninsert_table_to_rdf 2:role_capabilities

2012-05-12 22:55:36: actioninsert_table_to_rdf 2:role_capabilities

2012-05-12 22:55:36: actioninsert_table_to_rdf 2:role_capabilities

2012-05-12 22:55:36: actioninsert_table_to_rdf 2:role_capabilities

2012-05-12 22:55:36: actioninsert_table_to_rdf 2:role_capabilities

2012-05-12 22:55:36: actioninsert_table_to_rdf 2:role_capabilities

2012-05-12 22:55:36: actioninsert_table_to_rdf 2:role_capabilities

2012-05-12 22:55:36: actioninsert_table_to_rdf 2:role_capabilities

2012-05-12 22:55:36: actioninsert_table_to_rdf 2:role_capabilities

2012-05-12 22:55:36: actioninsert_table_to_rdf 2:role_capabilities

2012-05-12 22:55:36: actioninsert_table_to_rdf 2:role_capabilities

2012-05-12 22:55:36: actioninsert_table_to_rdf 2:role_capabilities

2012-05-12 22:55:36: actioninsert_table_to_rdf 2:role_capabilities

2012-05-12 22:55:36: actioninsert_table_to_rdf 2:role_capabilities

2012-05-12 22:55:36: actioninsert_table_to_rdf 2:role_capabilities

2012-05-12 22:55:36: actioninsert_table_to_rdf 2:role_capabilities

2012-05-12 22:55:36: actioninsert_table_to_rdf 2:role_capabilities

2012-05-12 22:55:36: actioninsert_table_to_rdf 2:role_capabilities

2012-05-12 22:55:36: actioninsert_table_to_rdf 2:role_capabilities

2012-05-12 22:55:36: actioninsert_table_to_rdf 2:role_capabilities

2012-05-12 22:55:36: actioninsert_table_to_rdf 2:role_capabilities

2012-05-12 22:55:36: actioninsert_table_to_rdf 2:role_capabilities

2012-05-12 22:55:36: actioninsert_table_to_rdf 2:role_capabilities

2012-05-12 22:55:36: actioninsert_table_to_rdf 2:role_capabilities

2012-05-12 22:55:36: actioninsert_table_to_rdf 2:role_capabilities

2012-05-12 22:55:36: actioninsert_table_to_rdf 2:role_capabilities

2012-05-12 22:55:36: actioninsert_table_to_rdf 2:role_capabilities

2012-05-12 22:55:36: actioninsert_table_to_rdf 2:role_capabilities

2012-05-12 22:55:36: actioninsert_table_to_rdf 2:config

2012-05-12 22:55:36: actioninsert_table_to_rdf 2:config

2012-05-12 22:55:37: actioninsert_table_to_rdf 2:modules

2012-05-12 22:55:37: actioninsert_table_to_rdf 2:role_capabilities

2012-05-12 22:55:37: actioninsert_table_to_rdf 2:role_capabilities

2012-05-12 22:55:37: actioninsert_table_to_rdf 2:role_capabilities

2012-05-12 22:55:37: actioninsert_table_to_rdf 2:role_capabilities

2012-05-12 22:55:37: actioninsert_table_to_rdf 2:role_capabilities

2012-05-12 22:55:37: actioninsert_table_to_rdf 2:role_capabilities

2012-05-12 22:55:37: actioninsert_table_to_rdf 2:role_capabilities

2012-05-12 22:55:37: actioninsert_table_to_rdf 2:role_capabilities

2012-05-12 22:55:37: actioninsert_table_to_rdf 2:role_capabilities

2012-05-12 22:55:37: actioninsert_table_to_rdf 2:role_capabilities

2012-05-12 22:55:37: actioninsert_table_to_rdf 2:role_capabilities

2012-05-12 22:55:37: actioninsert_table_to_rdf 2:role_capabilities

2012-05-12 22:55:37: actioninsert_table_to_rdf 2:config

2012-05-12 22:55:37: actioninsert_table_to_rdf 2:config

2012-05-12 22:55:38: actioninsert_table_to_rdf 2:modules

2012-05-12 22:55:38: actioninsert_table_to_rdf 2:config

2012-05-12 22:55:38: actioninsert_table_to_rdf 2:modules

2012-05-12 22:55:38: actioninsert_table_to_rdf 2:modules

2012-05-12 22:55:38: actioninsert_table_to_rdf 2:role_capabilities

2012-05-12 22:55:38: actioninsert_table_to_rdf 2:role_capabilities

2012-05-12 22:55:38: actioninsert_table_to_rdf 2:role_capabilities

2012-05-12 22:55:38: actioninsert_table_to_rdf 2:role_capabilities

2012-05-12 22:55:38: actioninsert_table_to_rdf 2:config

2012-05-12 22:55:40: actioninsert_table_to_rdf 2:modules

2012-05-12 22:55:40: actioninsert_table_to_rdf 2:role_capabilities

2012-05-12 22:55:40: actioninsert_table_to_rdf 2:role_capabilities

2012-05-12 22:55:40: actioninsert_table_to_rdf 2:role_capabilities

2012-05-12 22:55:40: actioninsert_table_to_rdf 2:role_capabilities

2012-05-12 22:55:40: actioninsert_table_to_rdf 2:role_capabilities

2012-05-12 22:55:42: actioninsert_table_to_rdf 2:modules

2012-05-12 22:55:45: actioninsert_table_to_rdf 2:modules

2012-05-12 22:55:45: actioninsert_table_to_rdf 2:role_capabilities

2012-05-12 22:55:45: actioninsert_table_to_rdf 2:role_capabilities

2012-05-12 22:55:45: actioninsert_table_to_rdf 2:role_capabilities

2012-05-12 22:55:45: actioninsert_table_to_rdf 2:role_capabilities

2012-05-12 22:55:45: actioninsert_table_to_rdf 2:role_capabilities

2012-05-12 22:55:45: actioninsert_table_to_rdf 2:role_capabilities

2012-05-12 22:55:45: actioninsert_table_to_rdf 2:role_capabilities

2012-05-12 22:55:45: actioninsert_table_to_rdf 2:role_capabilities

2012-05-12 22:55:45: actioninsert_table_to_rdf 2:role_capabilities

2012-05-12 22:55:45: actioninsert_table_to_rdf 2:role_capabilities

2012-05-12 22:55:45: actioninsert_table_to_rdf 2:role_capabilities

2012-05-12 22:55:45: actioninsert_table_to_rdf 2:role_capabilities

2012-05-12 22:55:45: actioninsert_table_to_rdf 2:role_capabilities

2012-05-12 22:55:45: actioninsert_table_to_rdf 2:role_capabilities

2012-05-12 22:55:45: actioninsert_table_to_rdf 2:role_capabilities

2012-05-12 22:55:45: actioninsert_table_to_rdf 2:role_capabilities

2012-05-12 22:55:45: actioninsert_table_to_rdf 2:role_capabilities

2012-05-12 22:55:45: actioninsert_table_to_rdf 2:role_capabilities

2012-05-12 22:55:45: actioninsert_table_to_rdf 2:role_capabilities

2012-05-12 22:55:45: actioninsert_table_to_rdf 2:role_capabilities

2012-05-12 22:55:45: actioninsert_table_to_rdf 2:config

2012-05-12 22:55:45: actioninsert_table_to_rdf 2:config

2012-05-12 22:55:45: actioninsert_table_to_rdf 2:config

2012-05-12 22:55:45: actioninsert_table_to_rdf 2:config

2012-05-12 22:55:45: actioninsert_table_to_rdf 2:config

2012-05-12 22:55:45: actioninsert_table_to_rdf 2:config

2012-05-12 22:55:45: actioninsert_table_to_rdf 2:config

2012-05-12 22:55:45: actioninsert_table_to_rdf 2:config

2012-05-12 22:55:45: actioninsert_table_to_rdf 2:config

2012-05-12 22:55:45: actioninsert_table_to_rdf 2:config

2012-05-12 22:55:45: actioninsert_table_to_rdf 2:config

2012-05-12 22:55:45: actioninsert_table_to_rdf 2:config

2012-05-12 22:55:45: actioninsert_table_to_rdf 2:config

2012-05-12 22:55:45: actioninsert_table_to_rdf 2:config

2012-05-12 22:55:45: actioninsert_table_to_rdf 2:config

2012-05-12 22:55:45: actioninsert_table_to_rdf 2:config

2012-05-12 22:55:45: actioninsert_table_to_rdf 2:config

2012-05-12 22:55:45: actioninsert_table_to_rdf 2:config

2012-05-12 22:55:45: actioninsert_table_to_rdf 2:config

2012-05-12 22:55:45: actioninsert_table_to_rdf 2:config

2012-05-12 22:55:45: actioninsert_table_to_rdf 2:config

2012-05-12 22:55:45: actioninsert_table_to_rdf 2:config

2012-05-12 22:55:45: actioninsert_table_to_rdf 2:config

2012-05-12 22:55:45: actioninsert_table_to_rdf 2:config

2012-05-12 22:55:45: actioninsert_table_to_rdf 2:config

2012-05-12 22:55:45: actioninsert_table_to_rdf 2:config

2012-05-12 22:55:45: actioninsert_table_to_rdf 2:config

2012-05-12 22:55:45: actioninsert_table_to_rdf 2:config

2012-05-12 22:55:45: actioninsert_table_to_rdf 2:config

2012-05-12 22:55:45: actioninsert_table_to_rdf 2:config

2012-05-12 22:55:45: actioninsert_table_to_rdf 2:config

2012-05-12 22:55:45: actioninsert_table_to_rdf 2:config

2012-05-12 22:55:45: actioninsert_table_to_rdf 2:config

2012-05-12 22:55:45: actioninsert_table_to_rdf 2:config

2012-05-12 22:55:46: actioninsert_table_to_rdf 2:modules

2012-05-12 22:55:48: actioninsert_table_to_rdf 2:modules

2012-05-12 22:55:48: actioninsert_table_to_rdf 2:role_capabilities

2012-05-12 22:55:48: actioninsert_table_to_rdf 2:role_capabilities

2012-05-12 22:55:48: actioninsert_table_to_rdf 2:role_capabilities

2012-05-12 22:55:48: actioninsert_table_to_rdf 2:role_capabilities

2012-05-12 22:55:48: actioninsert_table_to_rdf 2:role_capabilities

2012-05-12 22:55:48: actioninsert_table_to_rdf 2:role_capabilities

2012-05-12 22:55:48: actioninsert_table_to_rdf 2:role_capabilities

2012-05-12 22:55:48: actioninsert_table_to_rdf 2:role_capabilities

2012-05-12 22:55:48: actioninsert_table_to_rdf 2:role_capabilities

2012-05-12 22:55:48: actioninsert_table_to_rdf 2:role_capabilities

2012-05-12 22:55:48: actioninsert_table_to_rdf 2:role_capabilities

2012-05-12 22:55:48: actioninsert_table_to_rdf 2:role_capabilities

2012-05-12 22:55:48: actioninsert_table_to_rdf 2:role_capabilities

2012-05-12 22:55:48: actioninsert_table_to_rdf 2:role_capabilities

2012-05-12 22:55:48: actioninsert_table_to_rdf 2:role_capabilities

2012-05-12 22:55:48: actioninsert_table_to_rdf 2:modules

2012-05-12 22:55:48: actioninsert_table_to_rdf 2:role_capabilities

2012-05-12 22:55:48: actioninsert_table_to_rdf 2:role_capabilities

2012-05-12 22:55:48: actioninsert_table_to_rdf 2:role_capabilities

2012-05-12 22:55:48: actioninsert_table_to_rdf 2:role_capabilities

2012-05-12 22:55:48: actioninsert_table_to_rdf 2:role_capabilities

2012-05-12 22:55:48: actioninsert_table_to_rdf 2:role_capabilities

2012-05-12 22:55:48: actioninsert_table_to_rdf 2:role_capabilities

2012-05-12 22:55:48: actioninsert_table_to_rdf 2:role_capabilities

2012-05-12 22:55:48: actioninsert_table_to_rdf 2:role_capabilities

2012-05-12 22:55:48: actioninsert_table_to_rdf 2:role_capabilities

2012-05-12 22:55:49: actioninsert_table_to_rdf 2:modules

2012-05-12 22:55:49: actioninsert_table_to_rdf 2:role_capabilities

2012-05-12 22:55:49: actioninsert_table_to_rdf 2:role_capabilities

2012-05-12 22:55:49: actioninsert_table_to_rdf 2:role_capabilities

2012-05-12 22:55:49: actioninsert_table_to_rdf 2:role_capabilities

2012-05-12 22:55:49: actioninsert_table_to_rdf 2:role_capabilities

2012-05-12 22:55:49: actioninsert_table_to_rdf 2:role_capabilities

2012-05-12 22:55:49: actioninsert_table_to_rdf 2:role_capabilities

2012-05-12 22:55:49: actioninsert_table_to_rdf 2:role_capabilities

2012-05-12 22:55:49: actioninsert_table_to_rdf 2:role_capabilities

2012-05-12 22:55:49: actioninsert_table_to_rdf 2:role_capabilities

2012-05-12 22:55:51: actioninsert_table_to_rdf 2:modules

2012-05-12 22:55:51: actioninsert_table_to_rdf 2:role_capabilities

2012-05-12 22:55:51: actioninsert_table_to_rdf 2:role_capabilities

2012-05-12 22:55:51: actioninsert_table_to_rdf 2:role_capabilities

2012-05-12 22:55:51: actioninsert_table_to_rdf 2:role_capabilities

2012-05-12 22:55:51: actioninsert_table_to_rdf 2:config

2012-05-12 22:55:54: actioninsert_table_to_rdf 2:config

2012-05-12 22:55:54: actioninsert_table_to_rdf 2:config

2012-05-12 22:55:54: actioninsert_table_to_rdf 2:config

2012-05-12 22:55:54: actioninsert_table_to_rdf 2:config

2012-05-12 22:55:54: actioninsert_table_to_rdf 2:config

2012-05-12 22:55:54: actioninsert_table_to_rdf 2:config

2012-05-12 22:55:55: actioninsert_table_to_rdf 2:config

2012-05-12 22:55:55: actioninsert_table_to_rdf 2:config

2012-05-12 22:55:55: actioninsert_table_to_rdf 2:config

2012-05-12 22:55:58: actioninsert_table_to_rdf 2:config

2012-05-12 22:55:58: actioninsert_table_to_rdf 2:config

2012-05-12 22:56:00: actioninsert_table_to_rdf 2:config

2012-05-12 22:56:01: actioninsert_table_to_rdf 2:block

2012-05-12 22:56:01: actioninsert_table_to_rdf 2:block

2012-05-12 22:56:01: actioninsert_table_to_rdf 2:block

2012-05-12 22:56:01: actioninsert_table_to_rdf 2:block

2012-05-12 22:56:01: actioninsert_table_to_rdf 2:block

2012-05-12 22:56:01: actioninsert_table_to_rdf 2:block

2012-05-12 22:56:01: actioninsert_table_to_rdf 2:block

2012-05-12 22:56:01: actioninsert_table_to_rdf 2:block

2012-05-12 22:56:01: actioninsert_table_to_rdf 2:block

2012-05-12 22:56:01: actioninsert_table_to_rdf 2:block

2012-05-12 22:56:01: actioninsert_table_to_rdf 2:block

2012-05-12 22:56:01: actioninsert_table_to_rdf 2:block

2012-05-12 22:56:01: actioninsert_table_to_rdf 2:block

2012-05-12 22:56:01: actioninsert_table_to_rdf 2:block

2012-05-12 22:56:01: actioninsert_table_to_rdf 2:block

2012-05-12 22:56:01: actioninsert_table_to_rdf 2:block

2012-05-12 22:56:01: actioninsert_table_to_rdf 2:block

2012-05-12 22:56:01: actioninsert_table_to_rdf 2:block

2012-05-12 22:56:01: actioninsert_table_to_rdf 2:block

2012-05-12 22:56:01: actioninsert_table_to_rdf 2:role_capabilities

2012-05-12 22:56:01: actioninsert_table_to_rdf 2:role_capabilities

2012-05-12 22:56:01: actioninsert_table_to_rdf 2:role_capabilities

2012-05-12 22:56:01: actioninsert_table_to_rdf 2:role_capabilities

2012-05-12 22:56:01: actioninsert_table_to_rdf 2:role_capabilities

2012-05-12 22:56:01: actioninsert_table_to_rdf 2:role_capabilities

2012-05-12 22:56:01: actioninsert_table_to_rdf 2:block

2012-05-12 22:56:01: actioninsert_table_to_rdf 2:block

2012-05-12 22:56:01: actioninsert_table_to_rdf 2:block

2012-05-12 22:56:01: actioninsert_table_to_rdf 2:block

2012-05-12 22:56:03: actioninsert_table_to_rdf 2:block

2012-05-12 22:56:03: actioninsert_table_to_rdf 2:role_capabilities

2012-05-12 22:56:03: actioninsert_table_to_rdf 2:role_capabilities

2012-05-12 22:56:03: actioninsert_table_to_rdf 2:role_capabilities

2012-05-12 22:56:03: actioninsert_table_to_rdf 2:role_capabilities

2012-05-12 22:56:03: actioninsert_table_to_rdf 2:role_capabilities

2012-05-12 22:56:03: actioninsert_table_to_rdf 2:role_capabilities

2012-05-12 22:56:03: actioninsert_table_to_rdf 2:role_capabilities

2012-05-12 22:56:03: actioninsert_table_to_rdf 2:role_capabilities

2012-05-12 22:56:03: actioninsert_table_to_rdf 2:role_capabilities

2012-05-12 22:56:03: actioninsert_table_to_rdf 2:block

2012-05-12 22:56:03: actioninsert_table_to_rdf 2:block

2012-05-12 22:56:03: actioninsert_table_to_rdf 2:block

2012-05-12 22:56:03: actioninsert_table_to_rdf 2:block

2012-05-12 22:56:03: actioninsert_table_to_rdf 2:block

2012-05-12 22:56:03: actioninsert_table_to_rdf 2:block

2012-05-12 22:56:03: actioninsert_table_to_rdf 2:block

2012-05-12 22:56:03: actioninsert_table_to_rdf 2:block

2012-05-12 22:56:05: actioninsert_table_to_rdf 2:config

2012-05-12 22:56:05: actioninsert_table_to_rdf 2:role_capabilities

2012-05-12 22:56:05: actioninsert_table_to_rdf 2:role_capabilities

2012-05-12 22:56:05: actioninsert_table_to_rdf 2:config

2012-05-12 22:56:07: actioninsert_table_to_rdf 2:mnet_rpc

2012-05-12 22:56:07: actioninsert_table_to_rdf 2:mnet_service

2012-05-12 22:56:07: actioninsert_table_to_rdf 2:mnet_service2rpc

2012-05-12 22:56:07: actioninsert_table_to_rdf 2:mnet_rpc

2012-05-12 22:56:07: actioninsert_table_to_rdf 2:mnet_service2rpc

2012-05-12 22:56:07: actioninsert_table_to_rdf 2:mnet_rpc

2012-05-12 22:56:07: actioninsert_table_to_rdf 2:mnet_service2rpc

2012-05-12 22:56:07: actioninsert_table_to_rdf 2:mnet_rpc

2012-05-12 22:56:07: actioninsert_table_to_rdf 2:mnet_service2rpc

2012-05-12 22:56:07: actioninsert_table_to_rdf 2:mnet_rpc

2012-05-12 22:56:07: actioninsert_table_to_rdf 2:mnet_service2rpc

2012-05-12 22:56:07: actioninsert_table_to_rdf 2:mnet_rpc

2012-05-12 22:56:07: actioninsert_table_to_rdf 2:mnet_service2rpc

2012-05-12 22:56:07: actioninsert_table_to_rdf 2:mnet_rpc

2012-05-12 22:56:07: actioninsert_table_to_rdf 2:mnet_service2rpc

2012-05-12 22:56:07: actioninsert_table_to_rdf 2:mnet_rpc

2012-05-12 22:56:07: actioninsert_table_to_rdf 2:mnet_service

2012-05-12 22:56:07: actioninsert_table_to_rdf 2:mnet_service2rpc

2012-05-12 22:56:07: actioninsert_table_to_rdf 2:mnet_rpc

2012-05-12 22:56:07: actioninsert_table_to_rdf 2:mnet_service2rpc

2012-05-12 22:56:07: actioninsert_table_to_rdf 2:mnet_rpc

2012-05-12 22:56:07: actioninsert_table_to_rdf 2:mnet_service

2012-05-12 22:56:07: actioninsert_table_to_rdf 2:mnet_service2rpc

2012-05-12 22:56:07: actioninsert_table_to_rdf 2:mnet_rpc

2012-05-12 22:56:07: actioninsert_table_to_rdf 2:mnet_service2rpc

2012-05-12 22:56:07: actioninsert_table_to_rdf 2:mnet_rpc

2012-05-12 22:56:07: actioninsert_table_to_rdf 2:mnet_service2rpc

2012-05-12 22:56:07: actioninsert_table_to_rdf 2:mnet_rpc

2012-05-12 22:56:07: actioninsert_table_to_rdf 2:mnet_service2rpc

2012-05-12 22:56:07: actioninsert_table_to_rdf 2:mnet_rpc

2012-05-12 22:56:07: actioninsert_table_to_rdf 2:mnet_service2rpc

2012-05-12 22:56:07: actioninsert_table_to_rdf 2:config

2012-05-12 22:56:07: actioninsert_table_to_rdf 2:role_capabilities

2012-05-12 22:56:07: actioninsert_table_to_rdf 2:role_capabilities

2012-05-12 22:56:07: actioninsert_table_to_rdf 2:role_capabilities

2012-05-12 22:56:07: actioninsert_table_to_rdf 2:role_capabilities

2012-05-12 22:56:07: actioninsert_table_to_rdf 2:config

2012-05-12 22:56:07: actioninsert_table_to_rdf 2:role_capabilities

2012-05-12 22:56:07: actioninsert_table_to_rdf 2:role_capabilities

2012-05-12 22:56:07: actioninsert_table_to_rdf 2:role_capabilities

2012-05-12 22:56:07: actioninsert_table_to_rdf 2:role_capabilities

2012-05-12 22:56:07: actioninsert_table_to_rdf 2:config

2012-05-12 22:56:07: actioninsert_table_to_rdf 2:role_capabilities

2012-05-12 22:56:07: actioninsert_table_to_rdf 2:role_capabilities

2012-05-12 22:56:07: actioninsert_table_to_rdf 2:role_capabilities

2012-05-12 22:56:07: actioninsert_table_to_rdf 2:role_capabilities

2012-05-12 22:56:07: actioninsert_table_to_rdf 2:config

2012-05-12 22:56:07: actioninsert_table_to_rdf 2:role_capabilities

2012-05-12 22:56:07: actioninsert_table_to_rdf 2:role_capabilities

2012-05-12 22:56:07: actioninsert_table_to_rdf 2:role_capabilities

2012-05-12 22:56:07: actioninsert_table_to_rdf 2:role_capabilities

2012-05-12 22:56:09: actionupdate_table_to_rdf 2:mnet_rpc

2012-05-12 22:56:09: actionupdate_table_to_rdf 2:mnet_rpc

2012-05-12 22:56:09: actionupdate_table_to_rdf 2:mnet_rpc

2012-05-12 22:56:09: actionupdate_table_to_rdf 2:mnet_rpc

2012-05-12 22:56:09: actionupdate_table_to_rdf 2:mnet_rpc

2012-05-12 22:56:09: actionupdate_table_to_rdf 2:mnet_rpc

2012-05-12 22:56:09: actionupdate_table_to_rdf 2:mnet_rpc

2012-05-12 22:56:09: actionupdate_table_to_rdf 2:mnet_rpc

2012-05-12 22:56:09: actionupdate_table_to_rdf 2:mnet_rpc

2012-05-12 22:56:09: actionupdate_table_to_rdf 2:mnet_rpc

2012-05-12 22:56:09: actionupdate_table_to_rdf 2:mnet_rpc

2012-05-12 22:56:09: actionupdate_table_to_rdf 2:mnet_rpc

2012-05-12 22:56:09: actionupdate_table_to_rdf 2:mnet_rpc

2012-05-12 22:56:09: actionupdate_table_to_rdf 2:mnet_rpc

2012-05-12 22:56:09: actioninsert_table_to_rdf 2:config

2012-05-12 22:56:09: actioninsert_table_to_rdf 2:role_capabilities

2012-05-12 22:56:09: actioninsert_table_to_rdf 2:role_capabilities

2012-05-12 22:56:09: actioninsert_table_to_rdf 2:config

2012-05-12 22:56:09: actioninsert_table_to_rdf 2:role_capabilities

2012-05-12 22:56:09: actioninsert_table_to_rdf 2:role_capabilities

2012-05-12 22:56:09: actioninsert_table_to_rdf 2:role_capabilities

2012-05-12 22:56:11: actionupdate_table_to_rdf 2:mnet_rpc

2012-05-12 22:56:11: actionupdate_table_to_rdf 2:mnet_rpc

2012-05-12 22:56:11: actionupdate_table_to_rdf 2:mnet_rpc

2012-05-12 22:56:11: actionupdate_table_to_rdf 2:mnet_rpc

2012-05-12 22:56:11: actionupdate_table_to_rdf 2:mnet_rpc

2012-05-12 22:56:11: actionupdate_table_to_rdf 2:mnet_rpc

2012-05-12 22:56:11: actionupdate_table_to_rdf 2:mnet_rpc

2012-05-12 22:56:11: actionupdate_table_to_rdf 2:mnet_rpc

2012-05-12 22:56:11: actionupdate_table_to_rdf 2:mnet_rpc

2012-05-12 22:56:12: actionupdate_table_to_rdf 2:mnet_rpc

2012-05-12 22:56:12: actionupdate_table_to_rdf 2:mnet_rpc

2012-05-12 22:56:12: actionupdate_table_to_rdf 2:mnet_rpc

2012-05-12 22:56:12: actionupdate_table_to_rdf 2:mnet_rpc

2012-05-12 22:56:12: actionupdate_table_to_rdf 2:mnet_rpc

2012-05-12 22:56:12: actioninsert_table_to_rdf 2:config

2012-05-12 22:56:12: actioninsert_table_to_rdf 2:role_capabilities

2012-05-12 22:56:12: actioninsert_table_to_rdf 2:role_capabilities

2012-05-12 22:56:12: actioninsert_table_to_rdf 2:role_capabilities

2012-05-12 22:56:12: actioninsert_table_to_rdf 2:config

2012-05-12 22:56:12: actioninsert_table_to_rdf 2:role_capabilities

2012-05-12 22:56:12: actioninsert_table_to_rdf 2:role_capabilities

2012-05-12 22:56:12: actioninsert_table_to_rdf 2:role_capabilities

2012-05-12 22:56:12: actioninsert_table_to_rdf 2:config

2012-05-12 22:56:12: actioninsert_table_to_rdf 2:role_capabilities

2012-05-12 22:56:12: actioninsert_table_to_rdf 2:role_capabilities

2012-05-12 22:56:12: actioninsert_table_to_rdf 2:config

2012-05-12 22:56:12: actioninsert_table_to_rdf 2:role_capabilities

2012-05-12 22:56:12: actioninsert_table_to_rdf 2:role_capabilities

2012-05-12 22:56:12: actioninsert_table_to_rdf 2:role_capabilities

2012-05-12 22:56:12: actioninsert_table_to_rdf 2:role_capabilities

2012-05-12 22:56:14: actionupdate_table_to_rdf 2:mnet_rpc

2012-05-12 22:56:14: actionupdate_table_to_rdf 2:mnet_rpc

2012-05-12 22:56:14: actionupdate_table_to_rdf 2:mnet_rpc

2012-05-12 22:56:14: actionupdate_table_to_rdf 2:mnet_rpc

2012-05-12 22:56:14: actionupdate_table_to_rdf 2:mnet_rpc

2012-05-12 22:56:14: actionupdate_table_to_rdf 2:mnet_rpc

2012-05-12 22:56:14: actionupdate_table_to_rdf 2:mnet_rpc

2012-05-12 22:56:14: actionupdate_table_to_rdf 2:mnet_rpc

2012-05-12 22:56:14: actionupdate_table_to_rdf 2:mnet_rpc

2012-05-12 22:56:14: actionupdate_table_to_rdf 2:mnet_rpc

2012-05-12 22:56:14: actionupdate_table_to_rdf 2:mnet_rpc

2012-05-12 22:56:14: actionupdate_table_to_rdf 2:mnet_rpc

2012-05-12 22:56:14: actionupdate_table_to_rdf 2:mnet_rpc

2012-05-12 22:56:14: actionupdate_table_to_rdf 2:mnet_rpc

2012-05-12 22:56:14: actioninsert_table_to_rdf 2:config

2012-05-12 22:56:14: actioninsert_table_to_rdf 2:role_capabilities

2012-05-12 22:56:14: actioninsert_table_to_rdf 2:role_capabilities

2012-05-12 22:56:14: actioninsert_table_to_rdf 2:role_capabilities

2012-05-12 22:56:14: actioninsert_table_to_rdf 2:role_capabilities

2012-05-12 22:56:14: actioninsert_table_to_rdf 2:role_capabilities

2012-05-12 22:56:14: actioninsert_table_to_rdf 2:role_capabilities

2012-05-12 22:56:14: actioninsert_table_to_rdf 2:role_capabilities

2012-05-12 22:56:14: actioninsert_table_to_rdf 2:role_capabilities

2012-05-12 22:56:14: actioninsert_table_to_rdf 2:role_capabilities

2012-05-12 22:56:14: actioninsert_table_to_rdf 2:config

2012-05-12 22:56:14: actioninsert_table_to_rdf 2:role_capabilities

2012-05-12 22:56:14: actioninsert_table_to_rdf 2:role_capabilities

2012-05-12 22:56:14: actioninsert_table_to_rdf 2:role_capabilities

2012-05-12 22:56:14: actioninsert_table_to_rdf 2:config

2012-05-12 22:56:14: actioninsert_table_to_rdf 2:role_capabilities

2012-05-12 22:56:14: actioninsert_table_to_rdf 2:role_capabilities

2012-05-12 22:56:14: actioninsert_table_to_rdf 2:role_capabilities

2012-05-12 22:56:14: actioninsert_table_to_rdf 2:config

2012-05-12 22:56:14: actioninsert_table_to_rdf 2:role_capabilities

2012-05-12 22:56:14: actioninsert_table_to_rdf 2:role_capabilities

2012-05-12 22:56:14: actioninsert_table_to_rdf 2:role_capabilities

2012-05-12 22:56:17: actionupdate_table_to_rdf 2:mnet_rpc

2012-05-12 22:56:17: actionupdate_table_to_rdf 2:mnet_rpc

2012-05-12 22:56:17: actionupdate_table_to_rdf 2:mnet_rpc

2012-05-12 22:56:17: actionupdate_table_to_rdf 2:mnet_rpc

2012-05-12 22:56:17: actionupdate_table_to_rdf 2:mnet_rpc

2012-05-12 22:56:17: actionupdate_table_to_rdf 2:mnet_rpc

2012-05-12 22:56:17: actionupdate_table_to_rdf 2:mnet_rpc

2012-05-12 22:56:17: actionupdate_table_to_rdf 2:mnet_rpc

2012-05-12 22:56:17: actionupdate_table_to_rdf 2:mnet_rpc

2012-05-12 22:56:17: actionupdate_table_to_rdf 2:mnet_rpc

2012-05-12 22:56:17: actionupdate_table_to_rdf 2:mnet_rpc

2012-05-12 22:56:17: actionupdate_table_to_rdf 2:mnet_rpc

2012-05-12 22:56:17: actionupdate_table_to_rdf 2:mnet_rpc

2012-05-12 22:56:17: actionupdate_table_to_rdf 2:mnet_rpc

2012-05-12 22:56:17: actioninsert_table_to_rdf 2:config

2012-05-12 22:56:17: actioninsert_table_to_rdf 2:role_capabilities

2012-05-12 22:56:17: actioninsert_table_to_rdf 2:role_capabilities

2012-05-12 22:56:17: actioninsert_table_to_rdf 2:role_capabilities

2012-05-12 22:56:17: actioninsert_table_to_rdf 2:config

2012-05-12 22:56:17: actioninsert_table_to_rdf 2:role_capabilities

2012-05-12 22:56:17: actioninsert_table_to_rdf 2:config

2012-05-12 22:56:17: actioninsert_table_to_rdf 2:role_capabilities

2012-05-12 22:56:19: actionupdate_table_to_rdf 2:mnet_rpc

2012-05-12 22:56:19: actionupdate_table_to_rdf 2:mnet_rpc

2012-05-12 22:56:19: actionupdate_table_to_rdf 2:mnet_rpc

2012-05-12 22:56:19: actionupdate_table_to_rdf 2:mnet_rpc

2012-05-12 22:56:19: actionupdate_table_to_rdf 2:mnet_rpc

2012-05-12 22:56:19: actionupdate_table_to_rdf 2:mnet_rpc

2012-05-12 22:56:19: actionupdate_table_to_rdf 2:mnet_rpc

2012-05-12 22:56:19: actionupdate_table_to_rdf 2:mnet_rpc

2012-05-12 22:56:19: actionupdate_table_to_rdf 2:mnet_rpc

2012-05-12 22:56:19: actionupdate_table_to_rdf 2:mnet_rpc

2012-05-12 22:56:19: actionupdate_table_to_rdf 2:mnet_rpc

2012-05-12 22:56:19: actionupdate_table_to_rdf 2:mnet_rpc

2012-05-12 22:56:19: actionupdate_table_to_rdf 2:mnet_rpc

2012-05-12 22:56:19: actionupdate_table_to_rdf 2:mnet_rpc

2012-05-12 22:56:20: actioninsert_table_to_rdf 2:course

2012-05-12 22:56:20: table is processing:course

2012-05-12 22:56:20: table to insert on url:

2012-05-12 22:56:20: ***insert_table_to_rdf 5:course

2012-05-12 22:56:20: actioninsert_table_to_rdf 2:context

2012-05-12 22:56:20: actioninsert_table_to_rdf 2:block_instance

2012-05-12 22:56:20: actioninsert_table_to_rdf 2:block_instance

2012-05-12 22:56:20: actioninsert_table_to_rdf 2:block_instance

2012-05-12 22:56:20: actioninsert_table_to_rdf 2:block_instance

2012-05-12 22:56:20: actioninsert_table_to_rdf 2:course_categories

2012-05-12 22:56:20: actioninsert_table_to_rdf 2:context

2012-05-12 22:56:20: actioninsert_table_to_rdf 2:cache_flags

2012-05-12 22:56:32: actionupdate_table_to_rdf 2:mnet_rpc

2012-05-12 22:56:32: actionupdate_table_to_rdf 2:mnet_rpc

2012-05-12 22:56:32: actionupdate_table_to_rdf 2:mnet_rpc

2012-05-12 22:56:32: actionupdate_table_to_rdf 2:mnet_rpc

2012-05-12 22:56:32: actionupdate_table_to_rdf 2:mnet_rpc

2012-05-12 22:56:32: actionupdate_table_to_rdf 2:mnet_rpc

2012-05-12 22:56:32: actionupdate_table_to_rdf 2:mnet_rpc

2012-05-12 22:56:32: actionupdate_table_to_rdf 2:mnet_rpc

2012-05-12 22:56:32: actionupdate_table_to_rdf 2:mnet_rpc

2012-05-12 22:56:32: actionupdate_table_to_rdf 2:mnet_rpc

2012-05-12 22:56:32: actionupdate_table_to_rdf 2:mnet_rpc

2012-05-12 22:56:32: actionupdate_table_to_rdf 2:mnet_rpc

2012-05-12 22:56:32: actionupdate_table_to_rdf 2:mnet_rpc

2012-05-12 22:56:32: actionupdate_table_to_rdf 2:mnet_rpc

2012-05-12 22:56:32: actioninsert_table_to_rdf 2:block_instance

2012-05-12 22:56:32: actioninsert_table_to_rdf 2:block_instance

2012-05-12 22:56:32: actioninsert_table_to_rdf 2:config

2012-05-12 22:56:32: actioninsert_table_to_rdf 2:config

2012-05-12 22:56:32: actioninsert_table_to_rdf 2:user

2012-05-12 22:56:32: table is processing:user

2012-05-12 22:56:32: table to insert on url:

2012-05-12 22:56:32: ***insert_table_to_rdf 5:user

2012-05-12 22:56:32: actioninsert_table_to_rdf 2:user

2012-05-12 22:56:32: table is processing:user

2012-05-12 22:56:32: table to insert on url:

2012-05-12 22:56:32: ***insert_table_to_rdf 5:user

2012-05-12 22:56:32: actioninsert_table_to_rdf 2:role_assignments

2012-05-12 22:56:32: table is processing:role_assignments

2012-05-12 22:56:32: table to insert on url:

2012-05-12 22:56:32: ***insert_table_to_rdf 5:role_assignments

2012-05-12 22:56:33: actionupdate_table_to_rdf 2:cache_flags

2012-05-12 22:56:33: actioninsert_table_to_rdf 2:config

2012-05-12 22:57:06: actionupdate_table_to_rdf 2:mnet_rpc

2012-05-12 22:57:06: actionupdate_table_to_rdf 2:mnet_rpc

2012-05-12 22:57:06: actionupdate_table_to_rdf 2:mnet_rpc

2012-05-12 22:57:06: actionupdate_table_to_rdf 2:mnet_rpc

2012-05-12 22:57:06: actionupdate_table_to_rdf 2:mnet_rpc

2012-05-12 22:57:06: actionupdate_table_to_rdf 2:mnet_rpc

2012-05-12 22:57:06: actionupdate_table_to_rdf 2:mnet_rpc

2012-05-12 22:57:06: actionupdate_table_to_rdf 2:mnet_rpc

2012-05-12 22:57:06: actionupdate_table_to_rdf 2:mnet_rpc

2012-05-12 22:57:06: actionupdate_table_to_rdf 2:mnet_rpc

2012-05-12 22:57:06: actionupdate_table_to_rdf 2:mnet_rpc

2012-05-12 22:57:06: actionupdate_table_to_rdf 2:mnet_rpc

2012-05-12 22:57:06: actionupdate_table_to_rdf 2:mnet_rpc

2012-05-12 22:57:06: actionupdate_table_to_rdf 2:mnet_rpc

2012-05-12 22:57:12: actioninsert_table_to_rdf 2:config

2012-05-12 22:57:12: actioninsert_table_to_rdf 2:config

2012-05-12 22:57:12: actionupdate_table_to_rdf 2:course

2012-05-12 22:57:12: table is processing:course

2012-05-12 22:57:12: table to insert on url:

2012-05-12 22:57:12: ***insert_table_to_rdf 5:course

2012-05-12 22:57:12: actionupdate_table_to_rdf 2:course

2012-05-12 22:57:12: table is processing:course

2012-05-12 22:57:12: table to insert on url:

2012-05-12 22:57:12: ***insert_table_to_rdf 5:course

2012-05-12 22:57:13: actionupdate_table_to_rdf 2:course

2012-05-12 22:57:13: table is processing:course

2012-05-12 22:57:13: table to insert on url:

2012-05-12 22:57:13: ***insert_table_to_rdf 5:course
