
2012-05-12 22:55:29: update record in table:context id:1

2012-05-12 22:55:29: update record in table finished:context

2012-05-12 22:56:09: update record in table:mnet_rpc id:1

2012-05-12 22:56:09: update record in table finished:mnet_rpc

2012-05-12 22:56:09: update record in table:mnet_rpc id:2

2012-05-12 22:56:09: update record in table finished:mnet_rpc

2012-05-12 22:56:09: update record in table:mnet_rpc id:3

2012-05-12 22:56:09: update record in table finished:mnet_rpc

2012-05-12 22:56:09: update record in table:mnet_rpc id:4

2012-05-12 22:56:09: update record in table finished:mnet_rpc

2012-05-12 22:56:09: update record in table:mnet_rpc id:5

2012-05-12 22:56:09: update record in table finished:mnet_rpc

2012-05-12 22:56:09: update record in table:mnet_rpc id:6

2012-05-12 22:56:09: update record in table finished:mnet_rpc

2012-05-12 22:56:09: update record in table:mnet_rpc id:7

2012-05-12 22:56:09: update record in table finished:mnet_rpc

2012-05-12 22:56:09: update record in table:mnet_rpc id:8

2012-05-12 22:56:09: update record in table finished:mnet_rpc

2012-05-12 22:56:09: update record in table:mnet_rpc id:9

2012-05-12 22:56:09: update record in table finished:mnet_rpc

2012-05-12 22:56:09: update record in table:mnet_rpc id:10

2012-05-12 22:56:09: update record in table finished:mnet_rpc

2012-05-12 22:56:09: update record in table:mnet_rpc id:11

2012-05-12 22:56:09: update record in table finished:mnet_rpc

2012-05-12 22:56:09: update record in table:mnet_rpc id:12

2012-05-12 22:56:09: update record in table finished:mnet_rpc

2012-05-12 22:56:09: update record in table:mnet_rpc id:13

2012-05-12 22:56:09: update record in table finished:mnet_rpc

2012-05-12 22:56:09: update record in table:mnet_rpc id:14

2012-05-12 22:56:09: update record in table finished:mnet_rpc

2012-05-12 22:56:11: update record in table:mnet_rpc id:1

2012-05-12 22:56:11: update record in table finished:mnet_rpc

2012-05-12 22:56:11: update record in table:mnet_rpc id:2

2012-05-12 22:56:11: update record in table finished:mnet_rpc

2012-05-12 22:56:11: update record in table:mnet_rpc id:3

2012-05-12 22:56:11: update record in table finished:mnet_rpc

2012-05-12 22:56:11: update record in table:mnet_rpc id:4

2012-05-12 22:56:11: update record in table finished:mnet_rpc

2012-05-12 22:56:11: update record in table:mnet_rpc id:5

2012-05-12 22:56:11: update record in table finished:mnet_rpc

2012-05-12 22:56:11: update record in table:mnet_rpc id:6

2012-05-12 22:56:11: update record in table finished:mnet_rpc

2012-05-12 22:56:11: update record in table:mnet_rpc id:7

2012-05-12 22:56:11: update record in table finished:mnet_rpc

2012-05-12 22:56:11: update record in table:mnet_rpc id:8

2012-05-12 22:56:11: update record in table finished:mnet_rpc

2012-05-12 22:56:11: update record in table:mnet_rpc id:9

2012-05-12 22:56:11: update record in table finished:mnet_rpc

2012-05-12 22:56:12: update record in table:mnet_rpc id:10

2012-05-12 22:56:12: update record in table finished:mnet_rpc

2012-05-12 22:56:12: update record in table:mnet_rpc id:11

2012-05-12 22:56:12: update record in table finished:mnet_rpc

2012-05-12 22:56:12: update record in table:mnet_rpc id:12

2012-05-12 22:56:12: update record in table finished:mnet_rpc

2012-05-12 22:56:12: update record in table:mnet_rpc id:13

2012-05-12 22:56:12: update record in table finished:mnet_rpc

2012-05-12 22:56:12: update record in table:mnet_rpc id:14

2012-05-12 22:56:12: update record in table finished:mnet_rpc

2012-05-12 22:56:14: update record in table:mnet_rpc id:1

2012-05-12 22:56:14: update record in table finished:mnet_rpc

2012-05-12 22:56:14: update record in table:mnet_rpc id:2

2012-05-12 22:56:14: update record in table finished:mnet_rpc

2012-05-12 22:56:14: update record in table:mnet_rpc id:3

2012-05-12 22:56:14: update record in table finished:mnet_rpc

2012-05-12 22:56:14: update record in table:mnet_rpc id:4

2012-05-12 22:56:14: update record in table finished:mnet_rpc

2012-05-12 22:56:14: update record in table:mnet_rpc id:5

2012-05-12 22:56:14: update record in table finished:mnet_rpc

2012-05-12 22:56:14: update record in table:mnet_rpc id:6

2012-05-12 22:56:14: update record in table finished:mnet_rpc

2012-05-12 22:56:14: update record in table:mnet_rpc id:7

2012-05-12 22:56:14: update record in table finished:mnet_rpc

2012-05-12 22:56:14: update record in table:mnet_rpc id:8

2012-05-12 22:56:14: update record in table finished:mnet_rpc

2012-05-12 22:56:14: update record in table:mnet_rpc id:9

2012-05-12 22:56:14: update record in table finished:mnet_rpc

2012-05-12 22:56:14: update record in table:mnet_rpc id:10

2012-05-12 22:56:14: update record in table finished:mnet_rpc

2012-05-12 22:56:14: update record in table:mnet_rpc id:11

2012-05-12 22:56:14: update record in table finished:mnet_rpc

2012-05-12 22:56:14: update record in table:mnet_rpc id:12

2012-05-12 22:56:14: update record in table finished:mnet_rpc

2012-05-12 22:56:14: update record in table:mnet_rpc id:13

2012-05-12 22:56:14: update record in table finished:mnet_rpc

2012-05-12 22:56:14: update record in table:mnet_rpc id:14

2012-05-12 22:56:14: update record in table finished:mnet_rpc

2012-05-12 22:56:17: update record in table:mnet_rpc id:1

2012-05-12 22:56:17: update record in table finished:mnet_rpc

2012-05-12 22:56:17: update record in table:mnet_rpc id:2

2012-05-12 22:56:17: update record in table finished:mnet_rpc

2012-05-12 22:56:17: update record in table:mnet_rpc id:3

2012-05-12 22:56:17: update record in table finished:mnet_rpc

2012-05-12 22:56:17: update record in table:mnet_rpc id:4

2012-05-12 22:56:17: update record in table finished:mnet_rpc

2012-05-12 22:56:17: update record in table:mnet_rpc id:5

2012-05-12 22:56:17: update record in table finished:mnet_rpc

2012-05-12 22:56:17: update record in table:mnet_rpc id:6

2012-05-12 22:56:17: update record in table finished:mnet_rpc

2012-05-12 22:56:17: update record in table:mnet_rpc id:7

2012-05-12 22:56:17: update record in table finished:mnet_rpc

2012-05-12 22:56:17: update record in table:mnet_rpc id:8

2012-05-12 22:56:17: update record in table finished:mnet_rpc

2012-05-12 22:56:17: update record in table:mnet_rpc id:9

2012-05-12 22:56:17: update record in table finished:mnet_rpc

2012-05-12 22:56:17: update record in table:mnet_rpc id:10

2012-05-12 22:56:17: update record in table finished:mnet_rpc

2012-05-12 22:56:17: update record in table:mnet_rpc id:11

2012-05-12 22:56:17: update record in table finished:mnet_rpc

2012-05-12 22:56:17: update record in table:mnet_rpc id:12

2012-05-12 22:56:17: update record in table finished:mnet_rpc

2012-05-12 22:56:17: update record in table:mnet_rpc id:13

2012-05-12 22:56:17: update record in table finished:mnet_rpc

2012-05-12 22:56:17: update record in table:mnet_rpc id:14

2012-05-12 22:56:17: update record in table finished:mnet_rpc

2012-05-12 22:56:19: update record in table:mnet_rpc id:1

2012-05-12 22:56:19: update record in table finished:mnet_rpc

2012-05-12 22:56:19: update record in table:mnet_rpc id:2

2012-05-12 22:56:19: update record in table finished:mnet_rpc

2012-05-12 22:56:19: update record in table:mnet_rpc id:3

2012-05-12 22:56:19: update record in table finished:mnet_rpc

2012-05-12 22:56:19: update record in table:mnet_rpc id:4

2012-05-12 22:56:19: update record in table finished:mnet_rpc

2012-05-12 22:56:19: update record in table:mnet_rpc id:5

2012-05-12 22:56:19: update record in table finished:mnet_rpc

2012-05-12 22:56:19: update record in table:mnet_rpc id:6

2012-05-12 22:56:19: update record in table finished:mnet_rpc

2012-05-12 22:56:19: update record in table:mnet_rpc id:7

2012-05-12 22:56:19: update record in table finished:mnet_rpc

2012-05-12 22:56:19: update record in table:mnet_rpc id:8

2012-05-12 22:56:19: update record in table finished:mnet_rpc

2012-05-12 22:56:19: update record in table:mnet_rpc id:9

2012-05-12 22:56:19: update record in table finished:mnet_rpc

2012-05-12 22:56:19: update record in table:mnet_rpc id:10

2012-05-12 22:56:19: update record in table finished:mnet_rpc

2012-05-12 22:56:19: update record in table:mnet_rpc id:11

2012-05-12 22:56:19: update record in table finished:mnet_rpc

2012-05-12 22:56:19: update record in table:mnet_rpc id:12

2012-05-12 22:56:19: update record in table finished:mnet_rpc

2012-05-12 22:56:19: update record in table:mnet_rpc id:13

2012-05-12 22:56:19: update record in table finished:mnet_rpc

2012-05-12 22:56:19: update record in table:mnet_rpc id:14

2012-05-12 22:56:19: update record in table finished:mnet_rpc

2012-05-12 22:56:32: update record in table:mnet_rpc id:1

2012-05-12 22:56:32: update record in table finished:mnet_rpc

2012-05-12 22:56:32: update record in table:mnet_rpc id:2

2012-05-12 22:56:32: update record in table finished:mnet_rpc

2012-05-12 22:56:32: update record in table:mnet_rpc id:3

2012-05-12 22:56:32: update record in table finished:mnet_rpc

2012-05-12 22:56:32: update record in table:mnet_rpc id:4

2012-05-12 22:56:32: update record in table finished:mnet_rpc

2012-05-12 22:56:32: update record in table:mnet_rpc id:5

2012-05-12 22:56:32: update record in table finished:mnet_rpc

2012-05-12 22:56:32: update record in table:mnet_rpc id:6

2012-05-12 22:56:32: update record in table finished:mnet_rpc

2012-05-12 22:56:32: update record in table:mnet_rpc id:7

2012-05-12 22:56:32: update record in table finished:mnet_rpc

2012-05-12 22:56:32: update record in table:mnet_rpc id:8

2012-05-12 22:56:32: update record in table finished:mnet_rpc

2012-05-12 22:56:32: update record in table:mnet_rpc id:9

2012-05-12 22:56:32: update record in table finished:mnet_rpc

2012-05-12 22:56:32: update record in table:mnet_rpc id:10

2012-05-12 22:56:32: update record in table finished:mnet_rpc

2012-05-12 22:56:32: update record in table:mnet_rpc id:11

2012-05-12 22:56:32: update record in table finished:mnet_rpc

2012-05-12 22:56:32: update record in table:mnet_rpc id:12

2012-05-12 22:56:32: update record in table finished:mnet_rpc

2012-05-12 22:56:32: update record in table:mnet_rpc id:13

2012-05-12 22:56:32: update record in table finished:mnet_rpc

2012-05-12 22:56:32: update record in table:mnet_rpc id:14

2012-05-12 22:56:32: update record in table finished:mnet_rpc

2012-05-12 22:56:33: update record in table:cache_flags id:1

2012-05-12 22:56:33: update record in table finished:cache_flags

2012-05-12 22:57:06: update record in table:mnet_rpc id:1

2012-05-12 22:57:06: update record in table finished:mnet_rpc

2012-05-12 22:57:06: update record in table:mnet_rpc id:2

2012-05-12 22:57:06: update record in table finished:mnet_rpc

2012-05-12 22:57:06: update record in table:mnet_rpc id:3

2012-05-12 22:57:06: update record in table finished:mnet_rpc

2012-05-12 22:57:06: update record in table:mnet_rpc id:4

2012-05-12 22:57:06: update record in table finished:mnet_rpc

2012-05-12 22:57:06: update record in table:mnet_rpc id:5

2012-05-12 22:57:06: update record in table finished:mnet_rpc

2012-05-12 22:57:06: update record in table:mnet_rpc id:6

2012-05-12 22:57:06: update record in table finished:mnet_rpc

2012-05-12 22:57:06: update record in table:mnet_rpc id:7

2012-05-12 22:57:06: update record in table finished:mnet_rpc

2012-05-12 22:57:06: update record in table:mnet_rpc id:8

2012-05-12 22:57:06: update record in table finished:mnet_rpc

2012-05-12 22:57:06: update record in table:mnet_rpc id:9

2012-05-12 22:57:06: update record in table finished:mnet_rpc

2012-05-12 22:57:06: update record in table:mnet_rpc id:10

2012-05-12 22:57:06: update record in table finished:mnet_rpc

2012-05-12 22:57:06: update record in table:mnet_rpc id:11

2012-05-12 22:57:06: update record in table finished:mnet_rpc

2012-05-12 22:57:06: update record in table:mnet_rpc id:12

2012-05-12 22:57:06: update record in table finished:mnet_rpc

2012-05-12 22:57:06: update record in table:mnet_rpc id:13

2012-05-12 22:57:06: update record in table finished:mnet_rpc

2012-05-12 22:57:06: update record in table:mnet_rpc id:14

2012-05-12 22:57:06: update record in table finished:mnet_rpc

2012-05-12 22:57:12: update record in table:course id:1

2012-05-12 22:57:12: update record in table finished:course

2012-05-12 22:57:12: update record in table:course id:1

2012-05-12 22:57:13: update record in table finished:course

2012-05-12 22:57:13: update record in table:course id:1

2012-05-12 22:57:13: update record in table finished:course
